assignments/hw5-risc-cpu/test/continuous_tb.vcd
$date
	Fri Mar 28 02:52:18 2025
$end
$version
	Icarus Verilog
$end
$timescale
	1ps
$end
$scope module continuous_tb $end
$var parameter 32 ! CLK_PERIOD $end
$var parameter 32 " DEBUG_LEVEL $end
$var parameter 32 # MAX_INSTR $end
$var parameter 32 $ MAX_TESTS $end
$var reg 1 % clk $end
$var reg 1 & rst $end
$var integer 32 ' current_test [31:0] $end
$var integer 32 ( debug_cycle [31:0] $end
$var integer 32 ) error_count [31:0] $end
$var integer 32 * i [31:0] $end
$var integer 32 + pass_count [31:0] $end
$var integer 32 , test_count [31:0] $end
$scope module dut $end
$var wire 1 % clk $end
$var wire 1 & rst $end
$var wire 1 - WB_en $end
$var wire 32 . WB_data [31:0] $end
$var wire 5 / WB_addr [4:0] $end
$var wire 32 0 IF_instruction [31:0] $end
$var wire 32 1 IF_PC_plus_1 [31:0] $end
$var wire 32 2 IF_PC_next [31:0] $end
$var wire 32 3 EX_mem_data [31:0] $end
$var wire 1 4 EX_Z $end
$var wire 1 5 EX_V $end
$var wire 1 6 EX_N_xor_V $end
$var wire 1 7 EX_N $end
$var wire 1 8 EX_C $end
$var wire 32 9 EX_BrA [31:0] $end
$var wire 32 : EX_ALU_result [31:0] $end
$var wire 32 ; DOF_extended_imm [31:0] $end
$var wire 5 < DOF_SH [4:0] $end
$var wire 1 = DOF_RW $end
$var wire 1 > DOF_PS $end
$var wire 1 ? DOF_MW $end
$var wire 2 @ DOF_MD [1:0] $end
$var wire 5 A DOF_FS [4:0] $end
$var wire 5 B DOF_DR [4:0] $end
$var wire 32 C DOF_BusB [31:0] $end
$var wire 32 D DOF_BusA [31:0] $end
$var wire 32 E DOF_B_data [31:0] $end
$var wire 2 F DOF_BS [1:0] $end
$var wire 32 G DOF_A_data [31:0] $end
$var reg 2 H DOF_EX_BS [1:0] $end
$var reg 32 I DOF_EX_BusA [31:0] $end
$var reg 32 J DOF_EX_BusB [31:0] $end
$var reg 5 K DOF_EX_DR [4:0] $end
$var reg 5 L DOF_EX_FS [4:0] $end
$var reg 2 M DOF_EX_MD [1:0] $end
$var reg 1 N DOF_EX_MW $end
$var reg 1 O DOF_EX_PS $end
$var reg 1 P DOF_EX_RW $end
$var reg 5 Q DOF_EX_SH [4:0] $end
$var reg 32 R DOF_EX_extended_imm [31:0] $end
$var reg 32 S EX_WB_ALU_result [31:0] $end
$var reg 5 T EX_WB_DR [4:0] $end
$var reg 2 U EX_WB_MD [1:0] $end
$var reg 1 V EX_WB_N_xor_V $end
$var reg 1 W EX_WB_RW $end
$var reg 32 X EX_WB_mem_data [31:0] $end
$var reg 32 Y IF_DOF_instruction [31:0] $end
$var reg 32 Z PC [31:0] $end
$var reg 32 [ PC_1 [31:0] $end
$var reg 32 \ PC_2 [31:0] $end
$scope module dof_stage $end
$var wire 32 ] IR [31:0] $end
$var wire 32 ^ PC_1 [31:0] $end
$var wire 1 % clk $end
$var wire 32 _ instruction [31:0] $end
$var wire 1 & rst $end
$var wire 7 ` opcode [6:0] $end
$var wire 32 a extended_imm [31:0] $end
$var wire 1 - WB_en $end
$var wire 32 b WB_data [31:0] $end
$var wire 5 c WB_addr [4:0] $end
$var wire 5 d SH [4:0] $end
$var wire 5 e SB [4:0] $end
$var wire 5 f SA [4:0] $end
$var wire 1 = RW $end
$var wire 1 > PS $end
$var wire 1 ? MW $end
$var wire 2 g MD [1:0] $end
$var wire 1 h MB $end
$var wire 1 i MA $end
$var wire 15 j IMM [14:0] $end
$var wire 5 k FS [4:0] $end
$var wire 5 l DR [4:0] $end
$var wire 1 m CS $end
$var wire 32 n BusB [31:0] $end
$var wire 32 o BusA [31:0] $end
$var wire 32 p B_data [31:0] $end
$var wire 2 q BS [1:0] $end
$var wire 32 r A_data [31:0] $end
$scope module const_unit $end
$var wire 15 s IMM [14:0] $end
$var wire 32 t out [31:0] $end
$var wire 1 m CS $end
$upscope $end
$scope module i_decoder $end
$var wire 7 u opcode [6:0] $end
$var reg 2 v BS [1:0] $end
$var reg 1 m CS $end
$var reg 5 w FS [4:0] $end
$var reg 1 i MA $end
$var reg 1 h MB $end
$var reg 2 x MD [1:0] $end
$var reg 1 ? MW $end
$var reg 1 > PS $end
$var reg 1 = RW $end
$upscope $end
$scope module mux_a $end
$var wire 1 i MA $end
$var wire 32 y PC_1 [31:0] $end
$var wire 32 z A_data [31:0] $end
$var reg 32 { out [31:0] $end
$upscope $end
$scope module mux_b $end
$var wire 1 h MB $end
$var wire 32 | constant [31:0] $end
$var wire 32 } B_data [31:0] $end
$var reg 32 ~ out [31:0] $end
$upscope $end
$scope module reg_file $end
$var wire 5 !" A_addr [4:0] $end
$var wire 5 "" B_addr [4:0] $end
$var wire 1 % clk $end
$var wire 1 & rst $end
$var wire 1 - D_write $end
$var wire 32 #" D_data [31:0] $end
$var wire 5 $" D_addr [4:0] $end
$var wire 32 %" B_data [31:0] $end
$var wire 32 &" A_data [31:0] $end
$var integer 32 '" i [31:0] $end
$upscope $end
$upscope $end
$scope module ex_stage $end
$var wire 32 (" BusA [31:0] $end
$var wire 32 )" BusB [31:0] $end
$var wire 5 *" FS [4:0] $end
$var wire 1 N MW $end
$var wire 1 6 N_xor_V $end
$var wire 32 +" PC_2 [31:0] $end
$var wire 5 ," SH [4:0] $end
$var wire 1 % clk $end
$var wire 32 -" extended_imm [31:0] $end
$var wire 1 & rst $end
$var wire 32 ." mem_data [31:0] $end
$var wire 1 4 Z $end
$var wire 1 5 V $end
$var wire 1 7 N $end
$var wire 1 8 C $end
$var wire 32 /" BrA [31:0] $end
$var wire 32 0" ALU_result [31:0] $end
$scope module data_mem $end
$var wire 1 N MW $end
$var wire 32 1" addr [31:0] $end
$var wire 1 % clk $end
$var wire 32 2" data_in [31:0] $end
$var reg 32 3" data_out [31:0] $end
$var integer 32 4" i [31:0] $end
$upscope $end
$scope module func_unit $end
$var wire 32 5" A [31:0] $end
$var wire 32 6" B [31:0] $end
$var wire 1 8 C $end
$var wire 32 7" F [31:0] $end
$var wire 5 8" FS [4:0] $end
$var wire 5 9" SH [4:0] $end
$var wire 1 4 Z $end
$var wire 1 5 V $end
$var wire 1 7 N $end
$var parameter 5 :" FS_ADD $end
$var parameter 5 ;" FS_AND $end
$var parameter 5 <" FS_JML $end
$var parameter 5 =" FS_LSL $end
$var parameter 5 >" FS_LSR $end
$var parameter 5 ?" FS_MOV $end
$var parameter 5 @" FS_NOP $end
$var parameter 5 A" FS_NOT $end
$var parameter 5 B" FS_OR $end
$var parameter 5 C" FS_SUB $end
$var parameter 5 D" FS_XOR $end
$var reg 1 E" carry_out $end
$var reg 1 5 overflow $end
$var reg 32 F" result [31:0] $end
$upscope $end
$upscope $end
$scope module if_stage $end
$var wire 2 G" BS [1:0] $end
$var wire 32 H" BrA [31:0] $end
$var wire 32 I" JMP [31:0] $end
$var wire 32 J" PC [31:0] $end
$var wire 1 O PS $end
$var wire 32 K" RAA [31:0] $end
$var wire 1 4 Z $end
$var wire 1 % clk $end
$var wire 1 & rst $end
$var wire 32 L" instruction [31:0] $end
$var wire 32 M" PC_next [31:0] $end
$var wire 32 N" PC_1 [31:0] $end
$scope module inst_mem $end
$var wire 32 O" addr [31:0] $end
$var wire 32 P" instruction [31:0] $end
$var integer 32 Q" i [31:0] $end
$upscope $end
$scope module mux_c $end
$var wire 2 R" BS [1:0] $end
$var wire 32 S" BrA [31:0] $end
$var wire 32 T" JMP [31:0] $end
$var wire 32 U" PC_1 [31:0] $end
$var wire 1 O PS $end
$var wire 32 V" RAA [31:0] $end
$var wire 1 4 Z $end
$var wire 32 W" top_path [31:0] $end
$var wire 32 X" out [31:0] $end
$var wire 1 Y" branch_condition $end
$var wire 32 Z" bottom_path [31:0] $end
$var wire 1 [" BS1 $end
$var wire 1 \" BS0 $end
$upscope $end
$upscope $end
$scope module wb_stage $end
$var wire 32 ]" ALU_result [31:0] $end
$var wire 5 ^" DR [4:0] $end
$var wire 2 _" MD [1:0] $end
$var wire 1 V N_xor_V $end
$var wire 1 W RW $end
$var wire 5 `" WB_addr [4:0] $end
$var wire 1 - WB_en $end
$var wire 32 a" mem_data [31:0] $end
$var wire 32 b" WB_data [31:0] $end
$scope module mux_d $end
$var wire 32 c" ALU_result [31:0] $end
$var wire 2 d" MD [1:0] $end
$var wire 1 V N_xor_V $end
$var wire 32 e" mem_data [31:0] $end
$var reg 32 f" out [31:0] $end
$upscope $end
$upscope $end
$upscope $end
$scope task initialize_data_memory $end
$upscope $end
$scope task initialize_instruction_memory $end
$upscope $end
$scope task initialize_registers $end
$upscope $end
$scope task setup_test_expectations $end
$var reg 32 g" addr_val [31:0] $end
$var reg 32 h" expected_val [31:0] $end
$var reg 32 i" pc_val [31:0] $end
$var reg 1 j" reg_mem_flag $end
$var reg 5 k" reg_num [4:0] $end
$var integer 32 l" test_index [31:0] $end
$upscope $end
$scope task verify_initial_regs $end
$upscope $end
$scope task verify_mem $end
$var reg 32 m" addr [31:0] $end
$var reg 32 n" expected_value [31:0] $end
$upscope $end
$scope task verify_reg $end
$var reg 32 o" expected_value [31:0] $end
$var reg 5 p" reg_num [4:0] $end
$upscope $end
$upscope $end
$enddefinitions $end
$comment Show the parameter values. $end
$dumpall
b1100 D"
b101 C"
b1010 B"
b1110 A"
b0 @"
b0 ?"
b11000 >"
b10100 ="
b111 <"
b1000 ;"
b10 :"
b100000 $
b100000000 #
b1 "
b1010 !
$end
#0
$dumpvars
bx p"
bx o"
bx n"
bx m"
b1111 l"
b110 k"
1j"
b1011110 i"
b10010001100100101011001110 h"
b0 g"
b0 f"
b0 e"
b0 d"
b0 c"
b0 b"
b0 a"
b0 `"
b0 _"
b0 ^"
b0 ]"
0\"
0["
b0 Z"
1Y"
b1 X"
b1 W"
b0 V"
b1 U"
b0 T"
b0 S"
b0 R"
b10000000000 Q"
b0 P"
b0 O"
b1 N"
b1 M"
b0 L"
b0 K"
b0 J"
b0 I"
b0 H"
b0 G"
b0 F"
0E"
b0 9"
b0 8"
b0 7"
b0 6"
b0 5"
b10000000000 4"
b0 3"
b0 2"
b0 1"
b0 0"
b0 /"
b0 ."
b0 -"
b0 ,"
b0 +"
b0 *"
b0 )"
b0 ("
b100000 '"
b0 &"
b0 %"
b0 $"
b0 #"
b0 ""
b0 !"
b0 ~
b0 }
b0 |
b0 {
b0 z
b0 y
b0 x
b0 w
b0 v
b0 u
b0 t
b0 s
b0 r
b0 q
b0 p
b0 o
b0 n
0m
b0 l
b0 k
b0 j
0i
0h
b0 g
b0 f
b0 e
b0 d
b0 c
b0 b
b0 a
b0 `
b0 _
b0 ^
b0 ]
b0 \
b0 [
b0 Z
b0 Y
b0 X
0W
0V
b0 U
b0 T
b0 S
b0 R
b0 Q
0P
0O
0N
b0 M
b0 L
b0 K
b0 J
b0 I
b0 H
b0 G
b0 F
b0 E
b0 D
b0 C
b0 B
b0 A
b0 @
0?
0>
0=
b0 <
b0 ;
b0 :
b0 9
08
07
06
05
14
b0 3
b1 2
b1 1
b0 0
b0 /
b0 .
0-
b1111 ,
b0 +
b10010110 *
b0 )
b0 (
b1111 '
1&
0%
$end
#5000
b100000 '"
b1 (
b1001 *
1%
#10000
0%
#15000
b100000 '"
b10 (
1%
#20000
0%
#25000
b100000 '"
b11 (
1%
#30000
0%
#35000
b100000 '"
b100 (
1%
#40000
b10 2
b10 M"
b10 X"
b10 W"
b1 [
b1 ^
b1 y
b10 1
b10 N"
b10 U"
b1 Z
b1 J"
b1 O"
0%
0&
b10000 *
#45000
b101 (
b1111 *
1%
#50000
b11 2
b11 M"
b11 X"
b11 W"
b1 9
b1 /"
b1 H"
b1 I"
b1 S"
b1 T"
b1 \
b1 +"
b10 [
b10 ^
b10 y
b11 1
b11 N"
b11 U"
b10 Z
b10 J"
b10 O"
0%
#55000
b110 (
b1111 *
1%
#60000
b100 2
b100 M"
b100 X"
b100 W"
b10 9
b10 /"
b10 H"
b10 I"
b10 S"
b10 T"
b10 \
b10 +"
b11 [
b11 ^
b11 y
b100 1
b100 N"
b100 U"
b11 Z
b11 J"
b11 O"
0%
#65000
b111 (
b1111 *
1%
#70000
b101 2
b101 M"
b101 X"
b101 W"
b100000100100001000000000000 0
b100000100100001000000000000 L"
b100000100100001000000000000 P"
b11 9
b11 /"
b11 H"
b11 I"
b11 S"
b11 T"
b11 \
b11 +"
b100 [
b100 ^
b100 y
b101 1
b101 N"
b101 U"
b100 Z
b100 J"
b100 O"
0%
#75000
b1111 *
b1000 (
1%
#80000
b11111111111111111111111111111111 D
b11111111111111111111111111111111 o
b11111111111111111111111111111111 {
b11111111111111111111111111111111 C
b11111111111111111111111111111111 n
b11111111111111111111111111111111 ~
b110 2
b110 M"
b110 X"
b10 A
b10 k
b10 w
1=
b11111111111111111111111111111111 G
b11111111111111111111111111111111 r
b11111111111111111111111111111111 z
b11111111111111111111111111111111 &"
b11111111111111111111111111111111 E
b11111111111111111111111111111111 p
b11111111111111111111111111111111 }
b11111111111111111111111111111111 %"
b1000000000000 ;
b1000000000000 a
b1000000000000 t
b1000000000000 |
b110 W"
b0 0
b0 L"
b0 P"
b10 `
b10 u
b1 B
b1 l
b100 f
b100 !"
b100 e
b100 ""
b1000000000000 j
b1000000000000 s
b100 9
b100 /"
b100 H"
b100 I"
b100 S"
b100 T"
b100 \
b100 +"
b101 [
b101 ^
b101 y
b110 1
b110 N"
b110 U"
b101 Z
b101 J"
b101 O"
b100000100100001000000000000 ]
b100000100100001000000000000 Y
b100000100100001000000000000 _
0%
#85000
b1001 (
b1111 *
1%
#90000
16
b0 D
b0 o
b0 {
b0 C
b0 n
b0 ~
0Y"
17
b0 A
b0 k
b0 w
0=
b0 G
b0 r
b0 z
b0 &"
b0 E
b0 p
b0 }
b0 %"
b0 ;
b0 a
b0 t
b0 |
b111 2
b111 M"
b111 X"
18
1E"
04
b11111111111111111111111111111110 :
b11111111111111111111111111111110 0"
b11111111111111111111111111111110 7"
b11111111111111111111111111111110 F"
b11111111111111111111111111111111 Z"
b0 `
b0 u
b0 B
b0 l
b0 f
b0 !"
b0 e
b0 ""
b0 j
b0 s
b111 W"
b1 K
b10 L
b10 *"
b10 8"
1P
b1000000000000 R
b1000000000000 -"
b11111111111111111111111111111111 J
b11111111111111111111111111111111 )"
b11111111111111111111111111111111 2"
b11111111111111111111111111111111 6"
b11111111111111111111111111111111 I
b11111111111111111111111111111111 ("
b11111111111111111111111111111111 1"
b11111111111111111111111111111111 5"
b11111111111111111111111111111111 K"
b11111111111111111111111111111111 V"
b0 ]
b0 Y
b0 _
b1000000000101 9
b1000000000101 /"
b1000000000101 H"
b1000000000101 I"
b1000000000101 S"
b1000000000101 T"
b101 \
b101 +"
b110 [
b110 ^
b110 y
b111 1
b111 N"
b111 U"
b110 Z
b110 J"
b110 O"
0%
#95000
b1111 *
b1010 (
1%
#100000
06
b1000 2
b1000 M"
b1000 X"
1Y"
07
b1000 W"
14
b0 :
b0 0"
b0 7"
b0 F"
08
0E"
b0 Z"
b11111111111111111111111111111110 .
b11111111111111111111111111111110 b
b11111111111111111111111111111110 #"
b11111111111111111111111111111110 b"
b11111111111111111111111111111110 f"
b110 \
b110 +"
b111 [
b111 ^
b111 y
b1000 1
b1000 N"
b1000 U"
b111 Z
b111 J"
b111 O"
b0 K
b0 L
b0 *"
b0 8"
0P
b110 9
b110 /"
b110 H"
b110 I"
b110 S"
b110 T"
b0 R
b0 -"
b0 J
b0 )"
b0 2"
b0 6"
b0 I
b0 ("
b0 1"
b0 5"
b0 K"
b0 V"
b1 /
b1 c
b1 $"
b1 `"
b1 T
b1 ^"
1-
1W
1V
b11111111111111111111111111111110 S
b11111111111111111111111111111110 ]"
b11111111111111111111111111111110 c"
0%
#105000
b1011 (
b1001 *
1%
#110000
b1001 2
b1001 M"
b1001 X"
b0 .
b0 b
b0 #"
b0 b"
b0 f"
b1001 W"
b0 /
b0 c
b0 $"
b0 `"
b0 T
b0 ^"
0-
0W
0V
b0 S
b0 ]"
b0 c"
b111 9
b111 /"
b111 H"
b111 I"
b111 S"
b111 T"
b111 \
b111 +"
b1000 [
b1000 ^
b1000 y
b1001 1
b1001 N"
b1001 U"
b1000 Z
b1000 J"
b1000 O"
0%
#115000
b1 +
b11111111111111111111111111111110 o"
b1 p"
b1111 *
b1100 (
1%
#120000
b1010 2
b1010 M"
b1010 X"
b1010 W"
b1000 9
b1000 /"
b1000 H"
b1000 I"
b1000 S"
b1000 T"
b1000 \
b1000 +"
b1001 [
b1001 ^
b1001 y
b1010 1
b1010 N"
b1010 U"
b1001 Z
b1001 J"
b1001 O"
0%
#125000
b1101 (
b1111 *
1%
#130000
b1011 2
b1011 M"
b1011 X"
b1011 W"
b1010000100100001000000000000 0
b1010000100100001000000000000 L"
b1010000100100001000000000000 P"
b1001 9
b1001 /"
b1001 H"
b1001 I"
b1001 S"
b1001 T"
b1001 \
b1001 +"
b1010 [
b1010 ^
b1010 y
b1011 1
b1011 N"
b1011 U"
b1010 Z
b1010 J"
b1010 O"
0%
#135000
b1111 *
b1110 (
1%
#140000
b11111111111111111111111111111111 D
b11111111111111111111111111111111 o
b11111111111111111111111111111111 {
b11111111111111111111111111111111 C
b11111111111111111111111111111111 n
b11111111111111111111111111111111 ~
b1100 2
b1100 M"
b1100 X"
b101 A
b101 k
b101 w
1=
b11111111111111111111111111111111 G
b11111111111111111111111111111111 r
b11111111111111111111111111111111 z
b11111111111111111111111111111111 &"
b11111111111111111111111111111111 E
b11111111111111111111111111111111 p
b11111111111111111111111111111111 }
b11111111111111111111111111111111 %"
b1000000000000 ;
b1000000000000 a
b1000000000000 t
b1000000000000 |
b1100 W"
b0 0
b0 L"
b0 P"
b101 `
b101 u
b1 B
b1 l
b100 f
b100 !"
b100 e
b100 ""
b1000000000000 j
b1000000000000 s
b1010 9
b1010 /"
b1010 H"
b1010 I"
b1010 S"
b1010 T"
b1010 \
b1010 +"
b1011 [
b1011 ^
b1011 y
b1100 1
b1100 N"
b1100 U"
b1011 Z
b1011 J"
b1011 O"
b1010000100100001000000000000 ]
b1010000100100001000000000000 Y
b1010000100100001000000000000 _
0%
#145000
b1111 (
b1111 *
1%
#150000
b0 D
b0 o
b0 {
b0 C
b0 n
b0 ~
b0 A
b0 k
b0 w
0=
b0 G
b0 r
b0 z
b0 &"
b0 E
b0 p
b0 }
b0 %"
b0 ;
b0 a
b0 t
b0 |
b1101 2
b1101 M"
b1101 X"
b11111111111111111111111111111111 Z"
b0 `
b0 u
b0 B
b0 l
b0 f
b0 !"
b0 e
b0 ""
b0 j
b0 s
b1101 W"
b1 K
b101 L
b101 *"
b101 8"
1P
b1000000000000 R
b1000000000000 -"
b11111111111111111111111111111111 J
b11111111111111111111111111111111 )"
b11111111111111111111111111111111 2"
b11111111111111111111111111111111 6"
b11111111111111111111111111111111 I
b11111111111111111111111111111111 ("
b11111111111111111111111111111111 1"
b11111111111111111111111111111111 5"
b11111111111111111111111111111111 K"
b11111111111111111111111111111111 V"
b0 ]
b0 Y
b0 _
b1000000001011 9
b1000000001011 /"
b1000000001011 H"
b1000000001011 I"
b1000000001011 S"
b1000000001011 T"
b1011 \
b1011 +"
b1100 [
b1100 ^
b1100 y
b1101 1
b1101 N"
b1101 U"
b1100 Z
b1100 J"
b1100 O"
0%
#155000
b10000 (
b1111 *
1%
#160000
b1110 2
b1110 M"
b1110 X"
b1110 W"
b0 Z"
b1100 \
b1100 +"
b1101 [
b1101 ^
b1101 y
b1110 1
b1110 N"
b1110 U"
b1101 Z
b1101 J"
b1101 O"
b0 K
b0 L
b0 *"
b0 8"
0P
b1100 9
b1100 /"
b1100 H"
b1100 I"
b1100 S"
b1100 T"
b0 R
b0 -"
b0 J
b0 )"
b0 2"
b0 6"
b0 I
b0 ("
b0 1"
b0 5"
b0 K"
b0 V"
b1 /
b1 c
b1 $"
b1 `"
b1 T
b1 ^"
1-
1W
0%
#165000
b10001 (
b1111 *
1%
#170000
b1111 2
b1111 M"
b1111 X"
b1111 W"
b0 /
b0 c
b0 $"
b0 `"
b0 T
b0 ^"
0-
0W
b1101 9
b1101 /"
b1101 H"
b1101 I"
b1101 S"
b1101 T"
b1101 \
b1101 +"
b1110 [
b1110 ^
b1110 y
b1111 1
b1111 N"
b1111 U"
b1110 Z
b1110 J"
b1110 O"
0%
#175000
b10 +
b0 o"
b1111 *
b10010 (
1%
#180000
b10000 2
b10000 M"
b10000 X"
b10000 W"
b1110 9
b1110 /"
b1110 H"
b1110 I"
b1110 S"
b1110 T"
b1110 \
b1110 +"
b1111 [
b1111 ^
b1111 y
b10000 1
b10000 N"
b10000 U"
b1111 Z
b1111 J"
b1111 O"
0%
#185000
b10011 (
b1111 *
1%
#190000
b10001 2
b10001 M"
b10001 X"
b10001 W"
b10000000100101000000000000000 0
b10000000100101000000000000000 L"
b10000000100101000000000000000 P"
b1111 9
b1111 /"
b1111 H"
b1111 I"
b1111 S"
b1111 T"
b1111 \
b1111 +"
b10000 [
b10000 ^
b10000 y
b10001 1
b10001 N"
b10001 U"
b10000 Z
b10000 J"
b10000 O"
0%
#195000
b1111 *
b10100 (
1%
#200000
b10010 2
b10010 M"
b10010 X"
b1000 A
b1000 k
b1000 w
1=
b10010 W"
b0 0
b0 L"
b0 P"
b1000 `
b1000 u
b1 B
b1 l
b101 f
b101 !"
b10000 9
b10000 /"
b10000 H"
b10000 I"
b10000 S"
b10000 T"
b10000 \
b10000 +"
b10001 [
b10001 ^
b10001 y
b10010 1
b10010 N"
b10010 U"
b10001 Z
b10001 J"
b10001 O"
b10000000100101000000000000000 ]
b10000000100101000000000000000 Y
b10000000100101000000000000000 _
0%
#205000
b10101 (
b1001 *
1%
#210000
b0 A
b0 k
b0 w
0=
b10011 2
b10011 M"
b10011 X"
b0 `
b0 u
b0 B
b0 l
b0 f
b0 !"
b10011 W"
b1 K
b1000 L
b1000 *"
b1000 8"
1P
b0 ]
b0 Y
b0 _
b10001 9
b10001 /"
b10001 H"
b10001 I"
b10001 S"
b10001 T"
b10001 \
b10001 +"
b10010 [
b10010 ^
b10010 y
b10011 1
b10011 N"
b10011 U"
b10010 Z
b10010 J"
b10010 O"
0%
#215000
b1111 *
b10110 (
1%
#220000
b10100 2
b10100 M"
b10100 X"
b10100 W"
b10010 9
b10010 /"
b10010 H"
b10010 I"
b10010 S"
b10010 T"
b10010 \
b10010 +"
b10011 [
b10011 ^
b10011 y
b10100 1
b10100 N"
b10100 U"
b10011 Z
b10011 J"
b10011 O"
b0 K
b0 L
b0 *"
b0 8"
0P
b1 /
b1 c
b1 $"
b1 `"
b1 T
b1 ^"
1-
1W
0%
#225000
b10111 (
b1111 *
1%
#230000
b10101 2
b10101 M"
b10101 X"
b10101 W"
b0 /
b0 c
b0 $"
b0 `"
b0 T
b0 ^"
0-
0W
b10011 9
b10011 /"
b10011 H"
b10011 I"
b10011 S"
b10011 T"
b10011 \
b10011 +"
b10100 [
b10100 ^
b10100 y
b10101 1
b10101 N"
b10101 U"
b10100 Z
b10100 J"
b10100 O"
0%
#235000
b11 +
b1111 *
b11000 (
1%
#240000
b10110 2
b10110 M"
b10110 X"
b10110 W"
b10100 9
b10100 /"
b10100 H"
b10100 I"
b10100 S"
b10100 T"
b10100 \
b10100 +"
b10101 [
b10101 ^
b10101 y
b10110 1
b10110 N"
b10110 U"
b10101 Z
b10101 J"
b10101 O"
0%
#245000
b11001 (
b1111 *
1%
#250000
b10111 2
b10111 M"
b10111 X"
b10111 W"
b10100001101111000000000000000 0
b10100001101111000000000000000 L"
b10100001101111000000000000000 P"
b10101 9
b10101 /"
b10101 H"
b10101 I"
b10101 S"
b10101 T"
b10101 \
b10101 +"
b10110 [
b10110 ^
b10110 y
b10111 1
b10111 N"
b10111 U"
b10110 Z
b10110 J"
b10110 O"
0%
#255000
b11010 (
b1111 *
1%
#260000
b11000 2
b11000 M"
b11000 X"
b1010 A
b1010 k
b1010 w
1=
b11000 W"
b0 0
b0 L"
b0 P"
b1010 `
b1010 u
b11 B
b11 l
b1111 f
b1111 !"
b10110 9
b10110 /"
b10110 H"
b10110 I"
b10110 S"
b10110 T"
b10110 \
b10110 +"
b10111 [
b10111 ^
b10111 y
b11000 1
b11000 N"
b11000 U"
b10111 Z
b10111 J"
b10111 O"
b10100001101111000000000000000 ]
b10100001101111000000000000000 Y
b10100001101111000000000000000 _
0%
#265000
b11011 (
b1111 *
1%
#270000
b0 A
b0 k
b0 w
0=
b11001 2
b11001 M"
b11001 X"
b0 `
b0 u
b0 B
b0 l
b0 f
b0 !"
b11001 W"
b11 K
b1010 L
b1010 *"
b1010 8"
1P
b0 ]
b0 Y
b0 _
b10111 9
b10111 /"
b10111 H"
b10111 I"
b10111 S"
b10111 T"
b10111 \
b10111 +"
b11000 [
b11000 ^
b11000 y
b11001 1
b11001 N"
b11001 U"
b11000 Z
b11000 J"
b11000 O"
0%
#275000
b1111 *
b11100 (
1%
#280000
b11010 2
b11010 M"
b11010 X"
b11010 W"
b11000 9
b11000 /"
b11000 H"
b11000 I"
b11000 S"
b11000 T"
b11000 \
b11000 +"
b11001 [
b11001 ^
b11001 y
b11010 1
b11010 N"
b11010 U"
b11001 Z
b11001 J"
b11001 O"
b0 K
b0 L
b0 *"
b0 8"
0P
b11 /
b11 c
b11 $"
b11 `"
b11 T
b11 ^"
1-
1W
0%
#285000
b11101 (
b1111 *
1%
#290000
b11011 2
b11011 M"
b11011 X"
b11011 W"
b0 /
b0 c
b0 $"
b0 `"
b0 T
b0 ^"
0-
0W
b11001 9
b11001 /"
b11001 H"
b11001 I"
b11001 S"
b11001 T"
b11001 \
b11001 +"
b11010 [
b11010 ^
b11010 y
b11011 1
b11011 N"
b11011 U"
b11010 Z
b11010 J"
b11010 O"
0%
#295000
b100 +
b11 p"
b1111 *
b11110 (
1%
#300000
b11100 2
b11100 M"
b11100 X"
b11100 W"
b11010 9
b11010 /"
b11010 H"
b11010 I"
b11010 S"
b11010 T"
b11010 \
b11010 +"
b11011 [
b11011 ^
b11011 y
b11100 1
b11100 N"
b11100 U"
b11011 Z
b11011 J"
b11011 O"
0%
#305000
b11111 (
b1001 *
1%
#310000
b11101 2
b11101 M"
b11101 X"
b11101 W"
b11000001101111000000000000000 0
b11000001101111000000000000000 L"
b11000001101111000000000000000 P"
b11011 9
b11011 /"
b11011 H"
b11011 I"
b11011 S"
b11011 T"
b11011 \
b11011 +"
b11100 [
b11100 ^
b11100 y
b11101 1
b11101 N"
b11101 U"
b11100 Z
b11100 J"
b11100 O"
0%
#315000
b1111 *
b100000 (
1%
#320000
b11110 2
b11110 M"
b11110 X"
b1100 A
b1100 k
b1100 w
1=
b11110 W"
b0 0
b0 L"
b0 P"
b1100 `
b1100 u
b11 B
b11 l
b1111 f
b1111 !"
b11100 9
b11100 /"
b11100 H"
b11100 I"
b11100 S"
b11100 T"
b11100 \
b11100 +"
b11101 [
b11101 ^
b11101 y
b11110 1
b11110 N"
b11110 U"
b11101 Z
b11101 J"
b11101 O"
b11000001101111000000000000000 ]
b11000001101111000000000000000 Y
b11000001101111000000000000000 _
0%
#325000
b100001 (
b1111 *
1%
#330000
b0 A
b0 k
b0 w
0=
b11111 2
b11111 M"
b11111 X"
b0 `
b0 u
b0 B
b0 l
b0 f
b0 !"
b11111 W"
b11 K
b1100 L
b1100 *"
b1100 8"
1P
b0 ]
b0 Y
b0 _
b11101 9
b11101 /"
b11101 H"
b11101 I"
b11101 S"
b11101 T"
b11101 \
b11101 +"
b11110 [
b11110 ^
b11110 y
b11111 1
b11111 N"
b11111 U"
b11110 Z
b11110 J"
b11110 O"
0%
#335000
b1111 *
b100010 (
1%
#340000
b100000 2
b100000 M"
b100000 X"
b100000 W"
b11110 9
b11110 /"
b11110 H"
b11110 I"
b11110 S"
b11110 T"
b11110 \
b11110 +"
b11111 [
b11111 ^
b11111 y
b100000 1
b100000 N"
b100000 U"
b11111 Z
b11111 J"
b11111 O"
b0 K
b0 L
b0 *"
b0 8"
0P
b11 /
b11 c
b11 $"
b11 `"
b11 T
b11 ^"
1-
1W
0%
#345000
b100011 (
b1111 *
1%
#350000
b100001 2
b100001 M"
b100001 X"
b100001 W"
b0 /
b0 c
b0 $"
b0 `"
b0 T
b0 ^"
0-
0W
b11111 9
b11111 /"
b11111 H"
b11111 I"
b11111 S"
b11111 T"
b11111 \
b11111 +"
b100000 [
b100000 ^
b100000 y
b100001 1
b100001 N"
b100001 U"
b100000 Z
b100000 J"
b100000 O"
0%
#355000
b101 +
b100100 (
b1111 *
1%
#360000
b100010 2
b100010 M"
b100010 X"
b100010 W"
b100000 9
b100000 /"
b100000 H"
b100000 I"
b100000 S"
b100000 T"
b100000 \
b100000 +"
b100001 [
b100001 ^
b100001 y
b100010 1
b100010 N"
b100010 U"
b100001 Z
b100001 J"
b100001 O"
0%
#365000
b100101 (
b1111 *
1%
#370000
b100011 2
b100011 M"
b100011 X"
b100011 W"
b10000100100000000000000000 0
b10000100100000000000000000 L"
b10000100100000000000000000 P"
b100001 9
b100001 /"
b100001 H"
b100001 I"
b100001 S"
b100001 T"
b100001 \
b100001 +"
b100010 [
b100010 ^
b100010 y
b100011 1
b100011 N"
b100011 U"
b100010 Z
b100010 J"
b100010 O"
0%
#375000
b1111 *
b100110 (
1%
