assignments/hw5-risc-cpu/test/top_tb.vcd
$date
	Thu Mar 27 15:22:38 2025
$end
$version
	Icarus Verilog
$end
$timescale
	1ps
$end
$scope module top_tb $end
$var parameter 7 ! ADD_OPCODE $end
$var parameter 7 " AND_OPCODE $end
$var parameter 7 # BNZ_OPCODE $end
$var parameter 7 $ BZ_OPCODE $end
$var parameter 32 % CLK_PERIOD $end
$var parameter 32 & DEBUG $end
$var parameter 7 ' JMP_OPCODE $end
$var parameter 7 ( LD_OPCODE $end
$var parameter 32 ) NOP_COUNT $end
$var parameter 64 * NOP_DELAY $end
$var parameter 7 + NOP_OPCODE $end
$var parameter 7 , OR_OPCODE $end
$var parameter 64 - PIPELINE_DELAY $end
$var parameter 32 . PIPELINE_STAGES $end
$var parameter 7 / ST_OPCODE $end
$var parameter 7 0 SUB_OPCODE $end
$var parameter 7 1 XOR_OPCODE $end
$var reg 1 2 clk $end
$var reg 1 3 rst $end
$var integer 32 4 branch_target [31:0] $end
$var integer 32 5 debug_cycle [31:0] $end
$var integer 32 6 error_count [31:0] $end
$var integer 32 7 i [31:0] $end
$var integer 32 8 inst_index [31:0] $end
$var integer 32 9 no_branch_target [31:0] $end
$var integer 32 : pass_count [31:0] $end
$var integer 32 ; pc_val [31:0] $end
$var integer 32 < test_phase [31:0] $end
$scope function load_instruction $end
$var reg 32 = inst [31:0] $end
$var integer 32 > index [31:0] $end
$upscope $end
$scope module dut $end
$var wire 1 2 clk $end
$var wire 1 3 rst $end
$var wire 1 ? WB_en $end
$var wire 32 @ WB_data [31:0] $end
$var wire 5 A WB_addr [4:0] $end
$var wire 32 B IF_instruction [31:0] $end
$var wire 32 C IF_PC_plus_1 [31:0] $end
$var wire 32 D IF_PC_next [31:0] $end
$var wire 32 E EX_mem_data [31:0] $end
$var wire 1 F EX_Z $end
$var wire 1 G EX_V $end
$var wire 1 H EX_N_xor_V $end
$var wire 1 I EX_N $end
$var wire 1 J EX_C $end
$var wire 32 K EX_BrA [31:0] $end
$var wire 32 L EX_ALU_result [31:0] $end
$var wire 32 M DOF_extended_imm [31:0] $end
$var wire 5 N DOF_SH [4:0] $end
$var wire 1 O DOF_RW $end
$var wire 1 P DOF_PS $end
$var wire 1 Q DOF_MW $end
$var wire 2 R DOF_MD [1:0] $end
$var wire 5 S DOF_FS [4:0] $end
$var wire 5 T DOF_DR [4:0] $end
$var wire 32 U DOF_BusB [31:0] $end
$var wire 32 V DOF_BusA [31:0] $end
$var wire 32 W DOF_B_data [31:0] $end
$var wire 2 X DOF_BS [1:0] $end
$var wire 32 Y DOF_A_data [31:0] $end
$var reg 32 Z DOF_EX_BusA [31:0] $end
$var reg 32 [ DOF_EX_BusB [31:0] $end
$var reg 5 \ DOF_EX_DR [4:0] $end
$var reg 5 ] DOF_EX_FS [4:0] $end
$var reg 2 ^ DOF_EX_MD [1:0] $end
$var reg 1 _ DOF_EX_MW $end
$var reg 1 ` DOF_EX_RW $end
$var reg 5 a DOF_EX_SH [4:0] $end
$var reg 32 b DOF_EX_extended_imm [31:0] $end
$var reg 32 c EX_WB_ALU_result [31:0] $end
$var reg 5 d EX_WB_DR [4:0] $end
$var reg 2 e EX_WB_MD [1:0] $end
$var reg 1 f EX_WB_N_xor_V $end
$var reg 1 g EX_WB_RW $end
$var reg 32 h EX_WB_mem_data [31:0] $end
$var reg 32 i IF_DOF_instruction [31:0] $end
$var reg 32 j PC [31:0] $end
$var reg 32 k PC_1 [31:0] $end
$var reg 32 l PC_2 [31:0] $end
$scope module dof_stage $end
$var wire 32 m IR [31:0] $end
$var wire 32 n PC_1 [31:0] $end
$var wire 1 2 clk $end
$var wire 32 o instruction [31:0] $end
$var wire 1 3 rst $end
$var wire 7 p opcode [6:0] $end
$var wire 32 q extended_imm [31:0] $end
$var wire 1 ? WB_en $end
$var wire 32 r WB_data [31:0] $end
$var wire 5 s WB_addr [4:0] $end
$var wire 5 t SH [4:0] $end
$var wire 5 u SB [4:0] $end
$var wire 5 v SA [4:0] $end
$var wire 1 O RW $end
$var wire 1 P PS $end
$var wire 1 Q MW $end
$var wire 2 w MD [1:0] $end
$var wire 1 x MB $end
$var wire 1 y MA $end
$var wire 15 z IMM [14:0] $end
$var wire 5 { FS [4:0] $end
$var wire 5 | DR [4:0] $end
$var wire 1 } CS $end
$var wire 32 ~ BusB [31:0] $end
$var wire 32 !" BusA [31:0] $end
$var wire 32 "" B_data [31:0] $end
$var wire 2 #" BS [1:0] $end
$var wire 32 $" A_data [31:0] $end
$scope module const_unit $end
$var wire 15 %" IMM [14:0] $end
$var wire 32 &" out [31:0] $end
$var wire 1 } CS $end
$upscope $end
$scope module i_decoder $end
$var wire 7 '" opcode [6:0] $end
$var reg 2 (" BS [1:0] $end
$var reg 1 } CS $end
$var reg 5 )" FS [4:0] $end
$var reg 1 y MA $end
$var reg 1 x MB $end
$var reg 2 *" MD [1:0] $end
$var reg 1 Q MW $end
$var reg 1 P PS $end
$var reg 1 O RW $end
$upscope $end
$scope module mux_a $end
$var wire 1 y MA $end
$var wire 32 +" PC_1 [31:0] $end
$var wire 32 ," out [31:0] $end
$var wire 32 -" A_data [31:0] $end
$upscope $end
$scope module mux_b $end
$var wire 1 x MB $end
$var wire 32 ." constant [31:0] $end
$var wire 32 /" out [31:0] $end
$var wire 32 0" B_data [31:0] $end
$upscope $end
$scope module reg_file $end
$var wire 5 1" A_addr [4:0] $end
$var wire 5 2" B_addr [4:0] $end
$var wire 1 2 clk $end
$var wire 1 3 rst $end
$var wire 1 ? D_write $end
$var wire 32 3" D_data [31:0] $end
$var wire 5 4" D_addr [4:0] $end
$var wire 32 5" B_data [31:0] $end
$var wire 32 6" A_data [31:0] $end
$var integer 32 7" i [31:0] $end
$upscope $end
$upscope $end
$scope module ex_stage $end
$var wire 32 8" BusA [31:0] $end
$var wire 32 9" BusB [31:0] $end
$var wire 5 :" FS [4:0] $end
$var wire 1 _ MW $end
$var wire 1 H N_xor_V $end
$var wire 32 ;" PC_2 [31:0] $end
$var wire 5 <" SH [4:0] $end
$var wire 1 2 clk $end
$var wire 32 =" extended_imm [31:0] $end
$var wire 1 3 rst $end
$var wire 32 >" mem_data [31:0] $end
$var wire 1 F Z $end
$var wire 1 G V $end
$var wire 1 I N $end
$var wire 1 J C $end
$var wire 32 ?" BrA [31:0] $end
$var wire 32 @" ALU_result [31:0] $end
$scope module data_mem $end
$var wire 1 _ MW $end
$var wire 32 A" addr [31:0] $end
$var wire 1 2 clk $end
$var wire 32 B" data_in [31:0] $end
$var reg 32 C" data_out [31:0] $end
$var integer 32 D" i [31:0] $end
$upscope $end
$scope module func_unit $end
$var wire 32 E" A [31:0] $end
$var wire 32 F" B [31:0] $end
$var wire 5 G" FS [4:0] $end
$var wire 5 H" SH [4:0] $end
$var wire 33 I" sub_result [32:0] $end
$var wire 33 J" add_result [32:0] $end
$var parameter 5 K" FS_ADD $end
$var parameter 5 L" FS_AND $end
$var parameter 5 M" FS_LSL $end
$var parameter 5 N" FS_LSR $end
$var parameter 5 O" FS_MOV $end
$var parameter 5 P" FS_NOP $end
$var parameter 5 Q" FS_NOT $end
$var parameter 5 R" FS_OR $end
$var parameter 5 S" FS_SUB $end
$var parameter 5 T" FS_XOR $end
$var reg 1 J C $end
$var reg 32 U" F [31:0] $end
$var reg 1 I N $end
$var reg 1 G V $end
$var reg 1 F Z $end
$upscope $end
$upscope $end
$scope module if_stage $end
$var wire 2 V" BS [1:0] $end
$var wire 32 W" BrA [31:0] $end
$var wire 32 X" JMP [31:0] $end
$var wire 32 Y" PC [31:0] $end
$var wire 1 P PS $end
$var wire 32 Z" RAA [31:0] $end
$var wire 1 F Z $end
$var wire 1 2 clk $end
$var wire 1 3 rst $end
$var wire 32 [" instruction [31:0] $end
$var wire 32 \" PC_next [31:0] $end
$var wire 32 ]" PC_1 [31:0] $end
$scope module inst_mem $end
$var wire 32 ^" addr [31:0] $end
$var wire 32 _" instruction [31:0] $end
$var integer 32 `" i [31:0] $end
$upscope $end
$scope module mux_c $end
$var wire 2 a" BS [1:0] $end
$var wire 32 b" BrA [31:0] $end
$var wire 32 c" JMP [31:0] $end
$var wire 32 d" PC_1 [31:0] $end
$var wire 1 P PS $end
$var wire 32 e" RAA [31:0] $end
$var wire 1 F Z $end
$var wire 32 f" top_path [31:0] $end
$var wire 32 g" out [31:0] $end
$var wire 1 h" branch_condition $end
$var wire 32 i" bottom_path [31:0] $end
$var wire 1 j" BS1 $end
$var wire 1 k" BS0 $end
$upscope $end
$upscope $end
$scope module wb_stage $end
$var wire 32 l" ALU_result [31:0] $end
$var wire 5 m" DR [4:0] $end
$var wire 2 n" MD [1:0] $end
$var wire 1 f N_xor_V $end
$var wire 1 g RW $end
$var wire 5 o" WB_addr [4:0] $end
$var wire 1 ? WB_en $end
$var wire 32 p" mem_data [31:0] $end
$var wire 32 q" WB_data [31:0] $end
$scope module mux_d $end
$var wire 32 r" ALU_result [31:0] $end
$var wire 2 s" MD [1:0] $end
$var wire 1 f N_xor_V $end
$var wire 32 t" mem_data [31:0] $end
$var reg 32 u" out [31:0] $end
$upscope $end
$upscope $end
$upscope $end
$scope task display_pipeline_state $end
$upscope $end
$scope task load_instruction_at_pc $end
$var reg 32 v" inst [31:0] $end
$upscope $end
$scope task load_instruction_sequence $end
$var reg 32 w" inst1 [31:0] $end
$var reg 32 x" inst2 [31:0] $end
$var reg 32 y" inst3 [31:0] $end
$upscope $end
$scope task verify_mem $end
$var reg 32 z" addr [31:0] $end
$var reg 32 {" expected_value [31:0] $end
$upscope $end
$scope task verify_pc $end
$var reg 32 |" expected_pc [31:0] $end
$upscope $end
$scope task verify_reg $end
$var reg 32 }" expected_value [31:0] $end
$var reg 5 ~" reg_num [4:0] $end
$upscope $end
$upscope $end
$enddefinitions $end
$comment Show the parameter values. $end
$dumpall
b1100 T"
b101 S"
b1010 R"
b1110 Q"
b0 P"
b1 O"
b11000 N"
b10100 M"
b1000 L"
b10 K"
b1100 1
b101 0
b1 /
b110 .
b111100 -
b1010 ,
b0 +
b110010 *
b101 )
b100001 (
b1000100 '
b1 &
b1010 %
b100000 $
b1100000 #
b1000 "
b10 !
$end
#0
$dumpvars
bx ~"
bx }"
bx |"
bx {"
bx z"
bx y"
bx x"
bx w"
bx v"
b0 u"
b0 t"
b0 s"
b0 r"
b0 q"
b0 p"
b0 o"
b0 n"
b0 m"
b0 l"
0k"
0j"
b0 i"
1h"
b1 g"
b1 f"
b0 e"
b1 d"
b0 c"
b0 b"
b0 a"
b10000000000 `"
b0 _"
b0 ^"
b1 ]"
b1 \"
b0 ["
b0 Z"
b0 Y"
b0 X"
b0 W"
b0 V"
b0 U"
b0 J"
b0 I"
b0 H"
b0 G"
b0 F"
b0 E"
b10000000000 D"
b0 C"
b0 B"
b0 A"
b0 @"
b0 ?"
b0 >"
b0 ="
b0 <"
b0 ;"
b0 :"
b0 9"
b0 8"
b100000 7"
b0 6"
b0 5"
b0 4"
b0 3"
b0 2"
b0 1"
b0 0"
b0 /"
b0 ."
b0 -"
b0 ,"
b0 +"
b0 *"
b0 )"
b0 ("
b0 '"
b0 &"
b0 %"
b0 $"
b0 #"
b0 ""
b0 !"
b0 ~
0}
b0 |
b0 {
b0 z
0y
0x
b0 w
b0 v
b0 u
b0 t
b0 s
b0 r
b0 q
b0 p
b0 o
b0 n
b0 m
b0 l
b0 k
b0 j
b0 i
b0 h
0g
0f
b0 e
b0 d
b0 c
b0 b
b0 a
0`
0_
b0 ^
b0 ]
b0 \
b0 [
b0 Z
b0 Y
b0 X
b0 W
b0 V
b0 U
b0 T
b0 S
b0 R
0Q
0P
0O
b0 N
b0 M
b0 L
b0 K
0J
0I
0H
0G
1F
b0 E
b1 D
b1 C
b0 B
b0 A
b0 @
0?
bx >
bx =
b0 <
bx ;
b0 :
bx 9
bx 8
bx 7
b0 6
b0 5
bx 4
13
02
$end
#5000
b100000 7"
12
#10000
02
#15000
b100000 7"
12
#20000
02
#25000
b100000 7"
12
#30000
02
#35000
b100000 7"
12
#40000
b10 D
b10 \"
b10 g"
b10 f"
b1 k
b1 n
b1 +"
b10 C
b10 ]"
b10 d"
b1 j
b1 Y"
b1 ^"
02
03
#45000
12
#50000
b11 D
b11 \"
b11 g"
b11 f"
b1 K
b1 ?"
b1 W"
b1 X"
b1 b"
b1 c"
b1 l
b1 ;"
b10 k
b10 n
b10 +"
b11 C
b11 ]"
b11 d"
b10 j
b10 Y"
b10 ^"
02
#55000
12
#60000
b100 D
b100 \"
b100 g"
b100 f"
b10 K
b10 ?"
b10 W"
b10 X"
b10 b"
b10 c"
b10 l
b10 ;"
b11 k
b11 n
b11 +"
b100 C
b100 ]"
b100 d"
b11 j
b11 Y"
b11 ^"
02
#65000
12
#70000
b101 D
b101 \"
b101 g"
b101 f"
b11 K
b11 ?"
b11 W"
b11 X"
b11 b"
b11 c"
b11 l
b11 ;"
b100 k
b100 n
b100 +"
b101 C
b101 ]"
b101 d"
b100 j
b100 Y"
b100 ^"
02
#75000
12
#80000
b110 D
b110 \"
b110 g"
b110 f"
b100 K
b100 ?"
b100 W"
b100 X"
b100 b"
b100 c"
b100 l
b100 ;"
b101 k
b101 n
b101 +"
b110 C
b110 ]"
b110 d"
b101 j
b101 Y"
b101 ^"
02
b100001000000000000000000000 =
b1001 >
b100 8
b100001000000000000000000000 v"
b110 7
b1 <
#85000
12
#90000
b111 D
b111 \"
b111 g"
b111 f"
b100001000000000000000000000 B
b100001000000000000000000000 ["
b100001000000000000000000000 _"
b101 K
b101 ?"
b101 W"
b101 X"
b101 b"
b101 c"
b101 l
b101 ;"
b110 k
b110 n
b110 +"
b111 C
b111 ]"
b111 d"
b110 j
b110 Y"
b110 ^"
02
#95000
12
#100000
b1000 D
b1000 \"
b1000 g"
b10 S
b10 {
b10 )"
1O
b1000 f"
b0 B
b0 ["
b0 _"
b10 T
b10 |
b10 p
b10 '"
b110 K
b110 ?"
b110 W"
b110 X"
b110 b"
b110 c"
b110 l
b110 ;"
b111 k
b111 n
b111 +"
b1000 C
b1000 ]"
b1000 d"
b111 j
b111 Y"
b111 ^"
b100001000000000000000000000 m
b100001000000000000000000000 i
b100001000000000000000000000 o
02
#105000
12
#110000
b0 S
b0 {
b0 )"
0O
b1001 D
b1001 \"
b1001 g"
b0 T
b0 |
b0 p
b0 '"
b1001 f"
b10 \
b10 ]
b10 :"
b10 G"
1`
b0 m
b0 i
b0 o
b111 K
b111 ?"
b111 W"
b111 X"
b111 b"
b111 c"
b111 l
b111 ;"
b1000 k
b1000 n
b1000 +"
b1001 C
b1001 ]"
b1001 d"
b1000 j
b1000 Y"
b1000 ^"
02
#115000
12
#120000
b1010 D
b1010 \"
b1010 g"
b1010 f"
b1000 K
b1000 ?"
b1000 W"
b1000 X"
b1000 b"
b1000 c"
b1000 l
b1000 ;"
b1001 k
b1001 n
b1001 +"
b1010 C
b1010 ]"
b1010 d"
b1001 j
b1001 Y"
b1001 ^"
b0 \
b0 ]
b0 :"
b0 G"
0`
b10 A
b10 s
b10 4"
b10 o"
b10 d
b10 m"
1?
1g
02
#125000
12
#130000
b1011 D
b1011 \"
b1011 g"
b1011 f"
b0 A
b0 s
b0 4"
b0 o"
b0 d
b0 m"
0?
0g
b1001 K
b1001 ?"
b1001 W"
b1001 X"
b1001 b"
b1001 c"
b1001 l
b1001 ;"
b1010 k
b1010 n
b1010 +"
b1011 C
b1011 ]"
b1011 d"
b1010 j
b1010 Y"
b1010 ^"
02
b1 6
b10010001101000101011001111000 }"
b10 ~"
#135000
12
#140000
b1100 D
b1100 \"
b1100 g"
b1100 f"
b1010 K
b1010 ?"
b1010 W"
b1010 X"
b1010 b"
b1010 c"
b1010 l
b1010 ;"
b1011 k
b1011 n
b1011 +"
b1100 C
b1100 ]"
b1100 d"
b1011 j
b1011 Y"
b1011 ^"
02
b0 =
b1111 >
b0 v"
b10000 8
b110 7
b10 <
#145000
12
#150000
b1101 D
b1101 \"
b1101 g"
b1101 f"
b1011 K
b1011 ?"
b1011 W"
b1011 X"
b1011 b"
b1011 c"
b1011 l
b1011 ;"
b1100 k
b1100 n
b1100 +"
b1101 C
b1101 ]"
b1101 d"
b1100 j
b1100 Y"
b1100 ^"
02
#155000
12
#160000
b1110 D
b1110 \"
b1110 g"
b1110 f"
b1100 K
b1100 ?"
b1100 W"
b1100 X"
b1100 b"
b1100 c"
b1100 l
b1100 ;"
b1101 k
b1101 n
b1101 +"
b1110 C
b1110 ]"
b1110 d"
b1101 j
b1101 Y"
b1101 ^"
02
#165000
12
#170000
b1111 D
b1111 \"
b1111 g"
b1111 f"
b1101 K
b1101 ?"
b1101 W"
b1101 X"
b1101 b"
b1101 c"
b1101 l
b1101 ;"
b1110 k
b1110 n
b1110 +"
b1111 C
b1111 ]"
b1111 d"
b1110 j
b1110 Y"
b1110 ^"
02
#175000
12
#180000
b10000 D
b10000 \"
b10000 g"
b10000 f"
b1110 K
b1110 ?"
b1110 W"
b1110 X"
b1110 b"
b1110 c"
b1110 l
b1110 ;"
b1111 k
b1111 n
b1111 +"
b10000 C
b10000 ]"
b10000 d"
b1111 j
b1111 Y"
b1111 ^"
02
#185000
12
#190000
b10001 D
b10001 \"
b10001 g"
b10001 f"
b1111 K
b1111 ?"
b1111 W"
b1111 X"
b1111 b"
b1111 c"
b1111 l
b1111 ;"
b10000 k
b10000 n
b10000 +"
b10001 C
b10001 ]"
b10001 d"
b10000 j
b10000 Y"
b10000 ^"
02
#195000
12
#200000
b10010 D
b10010 \"
b10010 g"
b10010 f"
b10000 K
b10000 ?"
b10000 W"
b10000 X"
b10000 b"
b10000 c"
b10000 l
b10000 ;"
b10001 k
b10001 n
b10001 +"
b10010 C
b10010 ]"
b10010 d"
b10001 j
b10001 Y"
b10001 ^"
02
#205000
12
#210000
b10011 D
b10011 \"
b10011 g"
b10011 f"
b10001 K
b10001 ?"
b10001 W"
b10001 X"
b10001 b"
b10001 c"
b10001 l
b10001 ;"
b10010 k
b10010 n
b10010 +"
b10011 C
b10011 ]"
b10011 d"
b10010 j
b10010 Y"
b10010 ^"
02
#215000
12
#220000
b10100 D
b10100 \"
b10100 g"
b10100 f"
b10010 K
b10010 ?"
b10010 W"
b10010 X"
b10010 b"
b10010 c"
b10010 l
b10010 ;"
b10011 k
b10011 n
b10011 +"
b10100 C
b10100 ]"
b10100 d"
b10011 j
b10011 Y"
b10011 ^"
02
#225000
12
#230000
b10101 D
b10101 \"
b10101 g"
b10101 f"
b10011 K
b10011 ?"
b10011 W"
b10011 X"
b10011 b"
b10011 c"
b10011 l
b10011 ;"
b10100 k
b10100 n
b10100 +"
b10101 C
b10101 ]"
b10101 d"
b10100 j
b10100 Y"
b10100 ^"
02
#235000
12
#240000
b10110 D
b10110 \"
b10110 g"
b10110 f"
b10100 K
b10100 ?"
b10100 W"
b10100 X"
b10100 b"
b10100 c"
b10100 l
b10100 ;"
b10101 k
b10101 n
b10101 +"
b10110 C
b10110 ]"
b10110 d"
b10101 j
b10101 Y"
b10101 ^"
02
#245000
12
#250000
b10111 D
b10111 \"
b10111 g"
b10111 f"
b10101 K
b10101 ?"
b10101 W"
b10101 X"
b10101 b"
b10101 c"
b10101 l
b10101 ;"
b10110 k
b10110 n
b10110 +"
b10111 C
b10111 ]"
b10111 d"
b10110 j
b10110 Y"
b10110 ^"
02
b100000100001000000000000000 =
b11010 >
b110 7
b11011 8
b100000100001000000000000000 v"
b1 :
b1 ~"
#255000
12
#260000
b11000 D
b11000 \"
b11000 g"
b11000 f"
b10110 K
b10110 ?"
b10110 W"
b10110 X"
b10110 b"
b10110 c"
b10110 l
b10110 ;"
b10111 k
b10111 n
b10111 +"
b11000 C
b11000 ]"
b11000 d"
b10111 j
b10111 Y"
b10111 ^"
02
#265000
12
#270000
b11001 D
b11001 \"
b11001 g"
b11001 f"
b100000100001000000000000000 B
b100000100001000000000000000 ["
b100000100001000000000000000 _"
b10111 K
b10111 ?"
b10111 W"
b10111 X"
b10111 b"
b10111 c"
b10111 l
b10111 ;"
b11000 k
b11000 n
b11000 +"
b11001 C
b11001 ]"
b11001 d"
b11000 j
b11000 Y"
b11000 ^"
02
#275000
12
#280000
b10010001101000101011001111000 V
b10010001101000101011001111000 !"
b10010001101000101011001111000 ,"
b11010 D
b11010 \"
b11010 g"
b10010001101000101011001111000 Y
b10010001101000101011001111000 $"
b10010001101000101011001111000 -"
b10010001101000101011001111000 6"
b10 S
b10 {
b10 )"
1O
b11010 f"
b0 B
b0 ["
b0 _"
b1 T
b1 |
b1 v
b1 1"
b10 p
b10 '"
b11000 K
b11000 ?"
b11000 W"
b11000 X"
b11000 b"
b11000 c"
b11000 l
b11000 ;"
b11001 k
b11001 n
b11001 +"
b11010 C
b11010 ]"
b11010 d"
b11001 j
b11001 Y"
b11001 ^"
b100000100001000000000000000 m
b100000100001000000000000000 i
b100000100001000000000000000 o
02
#285000
12
#290000
b0 V
b0 !"
b0 ,"
0h"
b0 Y
b0 $"
b0 -"
b0 6"
b0 S
b0 {
b0 )"
0O
b11011 D
b11011 \"
b11011 g"
0F
b10010001101000101011001111000 L
b10010001101000101011001111000 @"
b10010001101000101011001111000 U"
b10010001101000101011001111000 i"
b0 T
b0 |
b0 v
b0 1"
b0 p
b0 '"
b11011 f"
b1 \
b10 ]
b10 :"
b10 G"
1`
b10010001101000101011001111000 J"
b10010001101000101011001111000 I"
b10010001101000101011001111000 Z
b10010001101000101011001111000 8"
b10010001101000101011001111000 A"
b10010001101000101011001111000 E"
b10010001101000101011001111000 Z"
b10010001101000101011001111000 e"
b0 m
b0 i
b0 o
b11001 K
b11001 ?"
b11001 W"
b11001 X"
b11001 b"
b11001 c"
b11001 l
b11001 ;"
b11010 k
b11010 n
b11010 +"
b11011 C
b11011 ]"
b11011 d"
b11010 j
b11010 Y"
b11010 ^"
02
#295000
12
#300000
b11100 D
b11100 \"
b11100 g"
1h"
b11100 f"
1F
b0 L
b0 @"
b0 U"
b0 i"
b10010001101000101011001111000 @
b10010001101000101011001111000 r
b10010001101000101011001111000 3"
b10010001101000101011001111000 q"
b10010001101000101011001111000 u"
b11010 K
b11010 ?"
b11010 W"
b11010 X"
b11010 b"
b11010 c"
b11010 l
b11010 ;"
b11011 k
b11011 n
b11011 +"
b11100 C
b11100 ]"
b11100 d"
b11011 j
b11011 Y"
b11011 ^"
b0 \
b0 ]
b0 :"
b0 G"
0`
b0 J"
b0 I"
b0 Z
b0 8"
b0 A"
b0 E"
b0 Z"
b0 e"
b1 A
b1 s
b1 4"
b1 o"
b1 d
b1 m"
1?
1g
b10010001101000101011001111000 c
b10010001101000101011001111000 l"
b10010001101000101011001111000 r"
02
#305000
12
#310000
b11101 D
b11101 \"
b11101 g"
b0 @
b0 r
b0 3"
b0 q"
b0 u"
b11101 f"
b0 A
b0 s
b0 4"
b0 o"
b0 d
b0 m"
0?
0g
b0 c
b0 l"
b0 r"
b11011 K
b11011 ?"
b11011 W"
b11011 X"
b11011 b"
b11011 c"
b11011 l
b11011 ;"
b11100 k
b11100 n
b11100 +"
b11101 C
b11101 ]"
b11101 d"
b11100 j
b11100 Y"
b11100 ^"
02
#315000
12
#320000
b11110 D
b11110 \"
b11110 g"
b11110 f"
b11100 K
b11100 ?"
b11100 W"
b11100 X"
b11100 b"
b11100 c"
b11100 l
b11100 ;"
b11101 k
b11101 n
b11101 +"
b11110 C
b11110 ]"
b11110 d"
b11101 j
b11101 Y"
b11101 ^"
02
#325000
12
#330000
b11111 D
b11111 \"
b11111 g"
b11111 f"
b11101 K
b11101 ?"
b11101 W"
b11101 X"
b11101 b"
b11101 c"
b11101 l
b11101 ;"
b11110 k
b11110 n
b11110 +"
b11111 C
b11111 ]"
b11111 d"
b11110 j
b11110 Y"
b11110 ^"
02
#335000
12
#340000
b100000 D
b100000 \"
b100000 g"
b100000 f"
b11110 K
b11110 ?"
b11110 W"
b11110 X"
b11110 b"
b11110 c"
b11110 l
b11110 ;"
b11111 k
b11111 n
b11111 +"
b100000 C
b100000 ]"
b100000 d"
b11111 j
b11111 Y"
b11111 ^"
02
#345000
12
#350000
b100001 D
b100001 \"
b100001 g"
b100001 f"
b11111 K
b11111 ?"
b11111 W"
b11111 X"
b11111 b"
b11111 c"
b11111 l
b11111 ;"
b100000 k
b100000 n
b100000 +"
b100001 C
b100001 ]"
b100001 d"
b100000 j
b100000 Y"
b100000 ^"
02
#355000
12
#360000
b100010 D
b100010 \"
b100010 g"
b100010 f"
b100000 K
b100000 ?"
b100000 W"
b100000 X"
b100000 b"
b100000 c"
b100000 l
b100000 ;"
b100001 k
b100001 n
b100001 +"
b100010 C
b100010 ]"
b100010 d"
b100001 j
b100001 Y"
b100001 ^"
02
b100010100011000000000000000 =
b100101 >
b110 7
b100110 8
b100010100011000000000000000 v"
b10 6
b1010110011110000111100010011011 }"
#365000
12
#370000
b100011 D
b100011 \"
b100011 g"
b100011 f"
b100001 K
b100001 ?"
b100001 W"
b100001 X"
b100001 b"
b100001 c"
b100001 l
b100001 ;"
b100010 k
b100010 n
b100010 +"
b100011 C
b100011 ]"
b100011 d"
b100010 j
b100010 Y"
b100010 ^"
02
#375000
12
#380000
b100100 D
b100100 \"
b100100 g"
b100100 f"
b100010 K
b100010 ?"
b100010 W"
b100010 X"
b100010 b"
b100010 c"
b100010 l
b100010 ;"
b100011 k
b100011 n
b100011 +"
b100100 C
b100100 ]"
b100100 d"
b100011 j
b100011 Y"
b100011 ^"
02
#385000
12
#390000
b100101 D
b100101 \"
b100101 g"
b100101 f"
b100010100011000000000000000 B
b100010100011000000000000000 ["
b100010100011000000000000000 _"
b100011 K
b100011 ?"
b100011 W"
b100011 X"
b100011 b"
b100011 c"
b100011 l
b100011 ;"
b100100 k
b100100 n
b100100 +"
b100101 C
b100101 ]"
b100101 d"
b100100 j
b100100 Y"
b100100 ^"
02
#395000
12
#400000
b10011010101111001101111011110000 V
b10011010101111001101111011110000 !"
b10011010101111001101111011110000 ,"
b100110 D
b100110 \"
b100110 g"
b10011010101111001101111011110000 Y
b10011010101111001101111011110000 $"
b10011010101111001101111011110000 -"
b10011010101111001101111011110000 6"
b10 S
b10 {
b10 )"
1O
b100110 f"
b0 B
b0 ["
b0 _"
b101 T
b101 |
b11 v
b11 1"
b10 p
b10 '"
b100100 K
b100100 ?"
b100100 W"
b100100 X"
b100100 b"
b100100 c"
b100100 l
b100100 ;"
b100101 k
b100101 n
b100101 +"
b100110 C
b100110 ]"
b100110 d"
b100101 j
b100101 Y"
b100101 ^"
b100010100011000000000000000 m
b100010100011000000000000000 i
b100010100011000000000000000 o
02
#405000
12
#410000
b0 V
b0 !"
b0 ,"
1H
0h"
b0 Y
b0 $"
b0 -"
b0 6"
b0 S
b0 {
b0 )"
0O
b100111 D
b100111 \"
b100111 g"
1I
0F
b10011010101111001101111011110000 L
b10011010101111001101111011110000 @"
b10011010101111001101111011110000 U"
b10011010101111001101111011110000 i"
b0 T
b0 |
b0 v
b0 1"
b0 p
b0 '"
b100111 f"
b101 \
b10 ]
b10 :"
b10 G"
1`
b10011010101111001101111011110000 J"
b10011010101111001101111011110000 I"
b10011010101111001101111011110000 Z
b10011010101111001101111011110000 8"
b10011010101111001101111011110000 A"
b10011010101111001101111011110000 E"
b10011010101111001101111011110000 Z"
b10011010101111001101111011110000 e"
b0 m
b0 i
b0 o
b100101 K
b100101 ?"
b100101 W"
b100101 X"
b100101 b"
b100101 c"
b100101 l
b100101 ;"
b100110 k
b100110 n
b100110 +"
b100111 C
b100111 ]"
b100111 d"
b100110 j
b100110 Y"
b100110 ^"
02
#415000
12
#420000
b101000 D
b101000 \"
b101000 g"
0H
1h"
b101000 f"
0I
1F
b0 L
b0 @"
b0 U"
b0 i"
b10011010101111001101111011110000 @
b10011010101111001101111011110000 r
b10011010101111001101111011110000 3"
b10011010101111001101111011110000 q"
b10011010101111001101111011110000 u"
b100110 K
b100110 ?"
b100110 W"
b100110 X"
b100110 b"
b100110 c"
b100110 l
b100110 ;"
b100111 k
b100111 n
b100111 +"
b101000 C
b101000 ]"
b101000 d"
b100111 j
b100111 Y"
b100111 ^"
b0 \
b0 ]
b0 :"
b0 G"
0`
b0 J"
b0 I"
b0 Z
b0 8"
b0 A"
b0 E"
b0 Z"
b0 e"
b101 A
b101 s
b101 4"
b101 o"
b101 d
b101 m"
1?
1g
1f
b10011010101111001101111011110000 c
b10011010101111001101111011110000 l"
b10011010101111001101111011110000 r"
02
#425000
12
#430000
b101001 D
b101001 \"
b101001 g"
b0 @
b0 r
b0 3"
b0 q"
b0 u"
b101001 f"
b0 A
b0 s
b0 4"
b0 o"
b0 d
b0 m"
0?
0g
0f
b0 c
b0 l"
b0 r"
b100111 K
b100111 ?"
b100111 W"
b100111 X"
b100111 b"
b100111 c"
b100111 l
b100111 ;"
b101000 k
b101000 n
b101000 +"
b101001 C
b101001 ]"
b101001 d"
b101000 j
b101000 Y"
b101000 ^"
02
#435000
12
#440000
b101010 D
b101010 \"
b101010 g"
b101010 f"
b101000 K
b101000 ?"
b101000 W"
b101000 X"
b101000 b"
b101000 c"
b101000 l
b101000 ;"
b101001 k
b101001 n
b101001 +"
b101010 C
b101010 ]"
b101010 d"
b101001 j
b101001 Y"
b101001 ^"
02
#445000
12
#450000
b101011 D
b101011 \"
b101011 g"
b101011 f"
b101001 K
b101001 ?"
b101001 W"
b101001 X"
b101001 b"
b101001 c"
b101001 l
b101001 ;"
b101010 k
b101010 n
b101010 +"
b101011 C
b101011 ]"
b101011 d"
b101010 j
b101010 Y"
b101010 ^"
02
#455000
12
