assignments/hw5-risc-cpu/hw6/hw6_tb.vcd
$date
	Sat Apr 05 02:39:55 2025
$end
$version
	Icarus Verilog
$end
$timescale
	1s
$end
$scope module hw6_tb $end
$var reg 1 ! clk $end
$var reg 1 " rst $end
$var integer 32 # i [31:0] $end
$var integer 32 $ j [31:0] $end
$var integer 32 % m [31:0] $end
$var integer 32 & tests_failed [31:0] $end
$var integer 32 ' tests_passed [31:0] $end
$var integer 32 ( total_tests [31:0] $end
$scope module cpu $end
$var wire 1 ! clk $end
$var wire 1 " rst $end
$var wire 1 ) WB_en $end
$var wire 32 * WB_data [31:0] $end
$var wire 5 + WB_addr [4:0] $end
$var wire 32 , IF_instruction [31:0] $end
$var wire 32 - IF_PC_plus_1 [31:0] $end
$var wire 32 . IF_PC_next [31:0] $end
$var wire 32 / EX_mem_data [31:0] $end
$var wire 1 0 EX_Z $end
$var wire 1 1 EX_V $end
$var wire 1 2 EX_N_xor_V $end
$var wire 1 3 EX_N $end
$var wire 1 4 EX_C $end
$var wire 32 5 EX_BrA [31:0] $end
$var wire 32 6 EX_ALU_result [31:0] $end
$var wire 32 7 DOF_extended_imm [31:0] $end
$var wire 5 8 DOF_SH [4:0] $end
$var wire 1 9 DOF_RW $end
$var wire 1 : DOF_PS $end
$var wire 1 ; DOF_MW $end
$var wire 2 < DOF_MD [1:0] $end
$var wire 5 = DOF_FS [4:0] $end
$var wire 5 > DOF_DR [4:0] $end
$var wire 32 ? DOF_BusB [31:0] $end
$var wire 32 @ DOF_BusA [31:0] $end
$var wire 32 A DOF_B_data [31:0] $end
$var wire 2 B DOF_BS [1:0] $end
$var wire 32 C DOF_A_data [31:0] $end
$var reg 2 D DOF_EX_BS [1:0] $end
$var reg 32 E DOF_EX_BusA [31:0] $end
$var reg 32 F DOF_EX_BusB [31:0] $end
$var reg 5 G DOF_EX_DR [4:0] $end
$var reg 5 H DOF_EX_FS [4:0] $end
$var reg 2 I DOF_EX_MD [1:0] $end
$var reg 1 J DOF_EX_MW $end
$var reg 1 K DOF_EX_PS $end
$var reg 1 L DOF_EX_RW $end
$var reg 5 M DOF_EX_SH [4:0] $end
$var reg 32 N DOF_EX_extended_imm [31:0] $end
$var reg 32 O EX_WB_ALU_result [31:0] $end
$var reg 5 P EX_WB_DR [4:0] $end
$var reg 2 Q EX_WB_MD [1:0] $end
$var reg 1 R EX_WB_N_xor_V $end
$var reg 1 S EX_WB_RW $end
$var reg 32 T EX_WB_mem_data [31:0] $end
$var reg 32 U IF_DOF_instruction [31:0] $end
$var reg 32 V PC [31:0] $end
$var reg 32 W PC_1 [31:0] $end
$var reg 32 X PC_2 [31:0] $end
$scope module dof_stage $end
$var wire 32 Y IR [31:0] $end
$var wire 32 Z PC_1 [31:0] $end
$var wire 1 ! clk $end
$var wire 32 [ instruction [31:0] $end
$var wire 1 " rst $end
$var wire 7 \ opcode [6:0] $end
$var wire 32 ] extended_imm [31:0] $end
$var wire 1 ) WB_en $end
$var wire 32 ^ WB_data [31:0] $end
$var wire 5 _ WB_addr [4:0] $end
$var wire 5 ` SH [4:0] $end
$var wire 5 a SB [4:0] $end
$var wire 5 b SA [4:0] $end
$var wire 1 9 RW $end
$var wire 1 : PS $end
$var wire 1 ; MW $end
$var wire 2 c MD [1:0] $end
$var wire 1 d MB $end
$var wire 1 e MA $end
$var wire 15 f IMM [14:0] $end
$var wire 5 g FS [4:0] $end
$var wire 5 h DR [4:0] $end
$var wire 1 i CS $end
$var wire 32 j BusB [31:0] $end
$var wire 32 k BusA [31:0] $end
$var wire 32 l B_data [31:0] $end
$var wire 2 m BS [1:0] $end
$var wire 32 n A_data [31:0] $end
$scope module const_unit $end
$var wire 15 o IMM [14:0] $end
$var wire 32 p out [31:0] $end
$var wire 1 i CS $end
$upscope $end
$scope module i_decoder $end
$var wire 7 q opcode [6:0] $end
$var reg 2 r BS [1:0] $end
$var reg 1 i CS $end
$var reg 5 s FS [4:0] $end
$var reg 1 e MA $end
$var reg 1 d MB $end
$var reg 2 t MD [1:0] $end
$var reg 1 ; MW $end
$var reg 1 : PS $end
$var reg 1 9 RW $end
$upscope $end
$scope module mux_a $end
$var wire 1 e MA $end
$var wire 32 u PC_1 [31:0] $end
$var wire 32 v A_data [31:0] $end
$var reg 32 w out [31:0] $end
$upscope $end
$scope module mux_b $end
$var wire 1 d MB $end
$var wire 32 x constant [31:0] $end
$var wire 32 y B_data [31:0] $end
$var reg 32 z out [31:0] $end
$upscope $end
$scope module reg_file $end
$var wire 5 { A_addr [4:0] $end
$var wire 5 | B_addr [4:0] $end
$var wire 1 ! clk $end
$var wire 1 " rst $end
$var wire 1 ) D_write $end
$var wire 32 } D_data [31:0] $end
$var wire 5 ~ D_addr [4:0] $end
$var wire 32 !" B_data [31:0] $end
$var wire 32 "" A_data [31:0] $end
$var integer 32 #" i [31:0] $end
$upscope $end
$upscope $end
$scope module ex_stage $end
$var wire 32 $" BusA [31:0] $end
$var wire 32 %" BusB [31:0] $end
$var wire 5 &" FS [4:0] $end
$var wire 1 J MW $end
$var wire 1 2 N_xor_V $end
$var wire 32 '" PC_2 [31:0] $end
$var wire 5 (" SH [4:0] $end
$var wire 1 ! clk $end
$var wire 32 )" extended_imm [31:0] $end
$var wire 1 " rst $end
$var wire 32 *" mem_data [31:0] $end
$var wire 1 0 Z $end
$var wire 1 1 V $end
$var wire 1 3 N $end
$var wire 1 4 C $end
$var wire 32 +" BrA [31:0] $end
$var wire 32 ," ALU_result [31:0] $end
$scope module data_mem $end
$var wire 1 J MW $end
$var wire 32 -" addr [31:0] $end
$var wire 1 ! clk $end
$var wire 32 ." data_in [31:0] $end
$var reg 32 /" data_out [31:0] $end
$var integer 32 0" i [31:0] $end
$upscope $end
$scope module func_unit $end
$var wire 32 1" A [31:0] $end
$var wire 32 2" B [31:0] $end
$var wire 1 4 C $end
$var wire 32 3" F [31:0] $end
$var wire 5 4" FS [4:0] $end
$var wire 5 5" SH [4:0] $end
$var wire 1 0 Z $end
$var wire 1 1 V $end
$var wire 1 3 N $end
$var parameter 5 6" FS_ADD $end
$var parameter 5 7" FS_AND $end
$var parameter 5 8" FS_JML $end
$var parameter 5 9" FS_LSL $end
$var parameter 5 :" FS_LSR $end
$var parameter 5 ;" FS_MOV $end
$var parameter 5 <" FS_NOP $end
$var parameter 5 =" FS_NOT $end
$var parameter 5 >" FS_OR $end
$var parameter 5 ?" FS_SUB $end
$var parameter 5 @" FS_XOR $end
$var reg 1 A" carry_out $end
$var reg 1 1 overflow $end
$var reg 32 B" result [31:0] $end
$upscope $end
$upscope $end
$scope module if_stage $end
$var wire 2 C" BS [1:0] $end
$var wire 32 D" BrA [31:0] $end
$var wire 32 E" JMP [31:0] $end
$var wire 32 F" PC [31:0] $end
$var wire 1 K PS $end
$var wire 32 G" RAA [31:0] $end
$var wire 1 0 Z $end
$var wire 1 ! clk $end
$var wire 1 " rst $end
$var wire 32 H" instruction [31:0] $end
$var wire 32 I" PC_next [31:0] $end
$var wire 32 J" PC_1 [31:0] $end
$scope module inst_mem $end
$var wire 32 K" addr [31:0] $end
$var wire 32 L" instruction [31:0] $end
$var integer 32 M" i [31:0] $end
$upscope $end
$scope module mux_c $end
$var wire 2 N" BS [1:0] $end
$var wire 32 O" BrA [31:0] $end
$var wire 32 P" JMP [31:0] $end
$var wire 32 Q" PC_1 [31:0] $end
$var wire 1 K PS $end
$var wire 32 R" RAA [31:0] $end
$var wire 1 0 Z $end
$var wire 32 S" top_path [31:0] $end
$var wire 32 T" out [31:0] $end
$var wire 1 U" branch_condition $end
$var wire 32 V" bottom_path [31:0] $end
$var wire 1 W" BS1 $end
$var wire 1 X" BS0 $end
$upscope $end
$upscope $end
$scope module wb_stage $end
$var wire 32 Y" ALU_result [31:0] $end
$var wire 5 Z" DR [4:0] $end
$var wire 2 [" MD [1:0] $end
$var wire 1 R N_xor_V $end
$var wire 1 S RW $end
$var wire 5 \" WB_addr [4:0] $end
$var wire 1 ) WB_en $end
$var wire 32 ]" mem_data [31:0] $end
$var wire 32 ^" WB_data [31:0] $end
$scope module mux_d $end
$var wire 32 _" ALU_result [31:0] $end
$var wire 2 `" MD [1:0] $end
$var wire 1 R N_xor_V $end
$var wire 32 a" mem_data [31:0] $end
$var reg 32 b" out [31:0] $end
$upscope $end
$upscope $end
$upscope $end
$upscope $end
$enddefinitions $end
$comment Show the parameter values. $end
$dumpall
b1100 @"
b101 ?"
b1010 >"
b1110 ="
b0 <"
b0 ;"
b11000 :"
b10100 9"
b111 8"
b1000 7"
b10 6"
$end
#0
$dumpvars
b0 b"
b0 a"
b0 `"
b0 _"
b0 ^"
b0 ]"
b0 \"
b0 ["
b0 Z"
b0 Y"
0X"
0W"
b0 V"
1U"
b1 T"
b1 S"
b0 R"
b1 Q"
b0 P"
b0 O"
b0 N"
b10000000000 M"
b100000000000000000000000000 L"
b0 K"
b1 J"
b1 I"
b100000000000000000000000000 H"
b0 G"
b0 F"
b0 E"
b0 D"
b0 C"
b0 B"
0A"
b0 5"
b0 4"
b0 3"
b0 2"
b0 1"
b10000000000 0"
b0 /"
b0 ."
b0 -"
b0 ,"
b0 +"
b0 *"
b0 )"
b0 ("
b0 '"
b0 &"
b0 %"
b0 $"
b100000 #"
b0 ""
b0 !"
b0 ~
b0 }
b0 |
b0 {
b0 z
b0 y
b0 x
b0 w
b0 v
b0 u
b0 t
b0 s
b0 r
b0 q
b0 p
b0 o
b0 n
b0 m
b0 l
b0 k
b0 j
0i
b0 h
b0 g
b0 f
0e
0d
b0 c
b0 b
b0 a
b0 `
b0 _
b0 ^
b0 ]
b0 \
b0 [
b0 Z
b0 Y
b0 X
b0 W
b0 V
b0 U
b0 T
0S
0R
b0 Q
b0 P
b0 O
b0 N
b0 M
0L
0K
0J
b0 I
b0 H
b0 G
b0 F
b0 E
b0 D
b0 C
b0 B
b0 A
b0 @
b0 ?
b0 >
b0 =
b0 <
0;
0:
09
b0 8
b0 7
b0 6
b0 5
04
03
02
01
10
b0 /
b1 .
b1 -
b100000000000000000000000000 ,
b0 +
b0 *
0)
b1000 (
b0 '
b0 &
b1000010 %
b10000000000 $
b10000000000 #
1"
0!
$end
#5
b100000 #"
1!
#10
0!
#15
b100000 #"
1!
#20
b10 .
b10 I"
b10 T"
b10 =
b10 g
b10 s
19
b10 S"
b0 ,
b0 H"
b0 L"
b10 \
b10 q
b1 W
b1 Z
b1 u
b10 -
b10 J"
b10 Q"
b1 V
b1 F"
b1 K"
b100000000000000000000000000 Y
b100000000000000000000000000 U
b100000000000000000000000000 [
0!
0"
#25
1!
#30
b0 =
b0 g
b0 s
09
b11 .
b11 I"
b11 T"
b0 \
b0 q
b11 S"
b1000000000000000000000000000 ,
b1000000000000000000000000000 H"
b1000000000000000000000000000 L"
b10 H
b10 &"
b10 4"
1L
b0 Y
b0 U
b0 [
b1 5
b1 +"
b1 D"
b1 E"
b1 O"
b1 P"
b1 X
b1 '"
b10 W
b10 Z
b10 u
b11 -
b11 J"
b11 Q"
b10 V
b10 F"
b10 K"
0!
#35
1!
#40
b100 .
b100 I"
b100 T"
b100 S"
b10 5
b10 +"
b10 D"
b10 E"
b10 O"
b10 P"
b10 X
b10 '"
b11 W
b11 Z
b11 u
b100 -
b100 J"
b100 Q"
b11 V
b11 F"
b11 K"
b0 H
b0 &"
b0 4"
0L
1)
1S
0!
b0 ,
b0 H"
b0 L"
b10000000000 $
b11001 %
#45
1!
#50
b101 .
b101 I"
b101 T"
b101 S"
0)
0S
b11 5
b11 +"
b11 D"
b11 E"
b11 O"
b11 P"
b11 X
b11 '"
b100 W
b100 Z
b100 u
b101 -
b101 J"
b101 Q"
b100 V
b100 F"
b100 K"
0!
#55
1!
#60
b110 .
b110 I"
b110 T"
b110 S"
b100 5
b100 +"
b100 D"
b100 E"
b100 O"
b100 P"
b100 X
b100 '"
b101 W
b101 Z
b101 u
b110 -
b110 J"
b110 Q"
b101 V
b101 F"
b101 K"
0!
#65
1!
#70
b111 .
b111 I"
b111 T"
b111 S"
b1000000000000000000000000000 ,
b1000000000000000000000000000 H"
b1000000000000000000000000000 L"
b101 5
b101 +"
b101 D"
b101 E"
b101 O"
b101 P"
b101 X
b101 '"
b110 W
b110 Z
b110 u
b111 -
b111 J"
b111 Q"
b110 V
b110 F"
b110 K"
0!
#75
1!
#80
bx @
bx k
bx w
bx ?
bx j
bx z
b1000 .
b1000 I"
b1000 T"
xi
xe
xd
bx =
bx g
bx s
x;
x:
bx B
bx m
bx r
bx <
bx c
bx t
x9
b1000 S"
b0 ,
b0 H"
b0 L"
b100 \
b100 q
b110 5
b110 +"
b110 D"
b110 E"
b110 O"
b110 P"
b110 X
b110 '"
b111 W
b111 Z
b111 u
b1000 -
b1000 J"
b1000 Q"
b111 V
b111 F"
b111 K"
b1000000000000000000000000000 Y
b1000000000000000000000000000 U
b1000000000000000000000000000 [
0!
#85
1!
#90
b0 @
b0 k
b0 w
b0 ?
b0 j
b0 z
x2
x3
0i
0e
0d
b0 =
b0 g
b0 s
0:
b0 B
b0 m
b0 r
0;
b0 <
b0 c
b0 t
09
bx .
bx I"
bx T"
xU"
xW"
xX"
x1
x4
xA"
x0
bx 6
bx ,"
bx 3"
bx B"
bx V"
b0 \
b0 q
b0xxx1 S"
xK
bx D
bx C"
bx N"
bx H
bx &"
bx 4"
xJ
bx I
xL
bx F
bx %"
bx ."
bx 2"
bx E
bx $"
bx -"
bx 1"
bx G"
bx R"
b0 Y
b0 U
b0 [
b111 5
b111 +"
b111 D"
b111 E"
b111 O"
b111 P"
b111 X
b111 '"
b1000 W
b1000 Z
b1000 u
b1001 -
b1001 J"
b1001 Q"
b1000 V
b1000 F"
b1000 K"
0!
#95
1!
#100
02
03
bx S"
bx ,
bx H"
bx L"
1U"
0W"
0X"
10
b0 6
b0 ,"
b0 3"
b0 B"
01
04
0A"
b0 V"
bx *
bx ^
bx }
bx ^"
bx b"
b1000 5
b1000 +"
b1000 D"
b1000 E"
b1000 O"
b1000 P"
b1000 X
b1000 '"
b1001 W
b1001 Z
b1001 u
bx -
bx J"
bx Q"
bx V
bx F"
bx K"
0K
b0 D
b0 C"
b0 N"
b0 H
b0 &"
b0 4"
0J
b0 I
0L
b0 F
b0 %"
b0 ."
b0 2"
b0 E
b0 $"
b0 -"
b0 1"
b0 G"
b0 R"
bx Q
bx ["
bx `"
x)
xS
xR
bx O
bx Y"
bx _"
0!
#105
1!
#110
bx @
bx k
bx w
bx ?
bx j
bx z
xi
xe
xd
bx =
bx g
bx s
x;
x:
bx B
bx m
bx r
bx <
bx c
bx t
x9
bx C
bx n
bx v
bx ""
bx A
bx l
bx y
bx !"
bx 7
bx ]
bx p
bx x
b0 *
b0 ^
b0 }
b0 ^"
b0 b"
bx \
bx q
bx >
bx h
bx b
bx {
bx a
bx |
bx f
bx o
bx 8
bx `
b0 Q
b0 ["
b0 `"
0)
0S
0R
b0 O
b0 Y"
b0 _"
bx Y
bx U
bx [
b1001 5
b1001 +"
b1001 D"
b1001 E"
b1001 O"
b1001 P"
b1001 X
b1001 '"
bx W
bx Z
bx u
0!
#115
1!
#120
x2
x3
xU"
xW"
xX"
x1
x4
xA"
x0
bx 6
bx ,"
bx 3"
bx B"
bx V"
bx X
bx '"
xK
bx D
bx C"
bx N"
bx M
bx ("
bx 5"
bx G
bx H
bx &"
bx 4"
xJ
bx I
xL
bx 5
bx +"
bx D"
bx E"
bx O"
bx P"
bx N
bx )"
bx F
bx %"
bx ."
bx 2"
bx E
bx $"
bx -"
bx 1"
bx G"
bx R"
0!
#125
1!
#130
bx *
bx ^
bx }
bx ^"
bx b"
bx +
bx _
bx ~
bx \"
bx P
bx Z"
bx Q
bx ["
bx `"
x)
xS
xR
bx O
bx Y"
bx _"
0!
