assignments/hw5-risc-cpu/hw6/hw6_tb.vcd
$date
	Thu Apr 24 12:13:27 2025
$end
$version
	Icarus Verilog
$end
$timescale
	1s
$end
$scope module hw6_tb $end
$var wire 2 ! BS_debug [1:0] $end
$var wire 32 " DOF_instruction_debug [31:0] $end
$var wire 5 # FS_debug [4:0] $end
$var wire 32 $ IF_instruction_debug [31:0] $end
$var wire 2 % MD_debug [1:0] $end
$var wire 1 & MW_debug $end
$var wire 32 ' PC_debug [31:0] $end
$var wire 32 ( R10_debug [31:0] $end
$var wire 32 ) R1_debug [31:0] $end
$var wire 32 * R2_debug [31:0] $end
$var wire 32 + R31_debug [31:0] $end
$var wire 32 , R3_debug [31:0] $end
$var wire 32 - R4_debug [31:0] $end
$var wire 32 . R5_debug [31:0] $end
$var wire 32 / R7_debug [31:0] $end
$var wire 32 0 R8_debug [31:0] $end
$var wire 32 1 R9_debug [31:0] $end
$var wire 1 2 RW_debug $end
$var wire 7 3 opcode_debug [6:0] $end
$var reg 1 4 clk $end
$var reg 1 5 debug_full_trace $end
$var reg 32 6 packed_lsr [31:0] $end
$var reg 32 7 packed_nop [31:0] $end
$var reg 32 8 prev_DOF_instruction [31:0] $end
$var reg 32 9 prev_PC [31:0] $end
$var reg 1 : rst $end
$var integer 32 ; debug_cycle_count [31:0] $end
$var integer 32 < i [31:0] $end
$var integer 32 = j [31:0] $end
$var integer 32 > m [31:0] $end
$var integer 32 ? tests_failed [31:0] $end
$var integer 32 @ tests_passed [31:0] $end
$var integer 32 A total_tests [31:0] $end
$scope function pack_instruction $end
$var reg 16 B imm [15:0] $end
$var reg 7 C opcode [6:0] $end
$var reg 5 D rd [4:0] $end
$var reg 5 E rs1 [4:0] $end
$var reg 5 F rs2 [4:0] $end
$upscope $end
$scope module cpu $end
$var wire 1 4 clk $end
$var wire 1 : rst $end
$var wire 1 G WB_en $end
$var wire 32 H WB_data [31:0] $end
$var wire 5 I WB_addr [4:0] $end
$var wire 32 J IF_instruction [31:0] $end
$var wire 32 K IF_PC_plus_1 [31:0] $end
$var wire 32 L IF_PC_next [31:0] $end
$var wire 32 M EX_mem_data [31:0] $end
$var wire 1 N EX_Z $end
$var wire 1 O EX_V $end
$var wire 1 P EX_N_xor_V $end
$var wire 1 Q EX_N $end
$var wire 1 R EX_C $end
$var wire 32 S EX_BrA [31:0] $end
$var wire 32 T EX_ALU_result [31:0] $end
$var wire 32 U DOF_extended_imm [31:0] $end
$var wire 5 V DOF_SH [4:0] $end
$var wire 1 W DOF_RW $end
$var wire 1 X DOF_PS $end
$var wire 1 Y DOF_MW $end
$var wire 2 Z DOF_MD [1:0] $end
$var wire 5 [ DOF_FS [4:0] $end
$var wire 5 \ DOF_DR [4:0] $end
$var wire 32 ] DOF_BusB [31:0] $end
$var wire 32 ^ DOF_BusA [31:0] $end
$var wire 32 _ DOF_B_data [31:0] $end
$var wire 2 ` DOF_BS [1:0] $end
$var wire 32 a DOF_A_data [31:0] $end
$var reg 2 b DOF_EX_BS [1:0] $end
$var reg 32 c DOF_EX_BusA [31:0] $end
$var reg 32 d DOF_EX_BusB [31:0] $end
$var reg 5 e DOF_EX_DR [4:0] $end
$var reg 5 f DOF_EX_FS [4:0] $end
$var reg 2 g DOF_EX_MD [1:0] $end
$var reg 1 h DOF_EX_MW $end
$var reg 1 i DOF_EX_PS $end
$var reg 1 j DOF_EX_RW $end
$var reg 5 k DOF_EX_SH [4:0] $end
$var reg 32 l DOF_EX_extended_imm [31:0] $end
$var reg 32 m EX_WB_ALU_result [31:0] $end
$var reg 5 n EX_WB_DR [4:0] $end
$var reg 2 o EX_WB_MD [1:0] $end
$var reg 1 p EX_WB_N_xor_V $end
$var reg 1 q EX_WB_RW $end
$var reg 32 r EX_WB_mem_data [31:0] $end
$var reg 32 s IF_DOF_instruction [31:0] $end
$var reg 32 t PC [31:0] $end
$var reg 32 u PC_1 [31:0] $end
$var reg 32 v PC_2 [31:0] $end
$scope module dof_stage $end
$var wire 32 w IR [31:0] $end
$var wire 32 x PC_1 [31:0] $end
$var wire 1 4 clk $end
$var wire 32 y instruction [31:0] $end
$var wire 1 : rst $end
$var wire 7 z opcode [6:0] $end
$var wire 32 { extended_imm [31:0] $end
$var wire 1 G WB_en $end
$var wire 32 | WB_data [31:0] $end
$var wire 5 } WB_addr [4:0] $end
$var wire 5 ~ SH [4:0] $end
$var wire 5 !" SB [4:0] $end
$var wire 5 "" SA [4:0] $end
$var wire 1 W RW $end
$var wire 1 X PS $end
$var wire 1 Y MW $end
$var wire 2 #" MD [1:0] $end
$var wire 1 $" MB $end
$var wire 1 %" MA $end
$var wire 15 &" IMM [14:0] $end
$var wire 5 '" FS [4:0] $end
$var wire 5 (" DR [4:0] $end
$var wire 1 )" CS $end
$var wire 32 *" BusB [31:0] $end
$var wire 32 +" BusA [31:0] $end
$var wire 32 ," B_data [31:0] $end
$var wire 2 -" BS [1:0] $end
$var wire 32 ." A_data [31:0] $end
$scope module const_unit $end
$var wire 15 /" IMM [14:0] $end
$var wire 32 0" out [31:0] $end
$var wire 1 )" CS $end
$upscope $end
$scope module i_decoder $end
$var wire 7 1" opcode [6:0] $end
$var reg 2 2" BS [1:0] $end
$var reg 1 )" CS $end
$var reg 5 3" FS [4:0] $end
$var reg 1 %" MA $end
$var reg 1 $" MB $end
$var reg 2 4" MD [1:0] $end
$var reg 1 Y MW $end
$var reg 1 X PS $end
$var reg 1 W RW $end
$upscope $end
$scope module mux_a $end
$var wire 1 %" MA $end
$var wire 32 5" PC_1 [31:0] $end
$var wire 32 6" A_data [31:0] $end
$var reg 32 7" out [31:0] $end
$upscope $end
$scope module mux_b $end
$var wire 1 $" MB $end
$var wire 32 8" constant [31:0] $end
$var wire 32 9" B_data [31:0] $end
$var reg 32 :" out [31:0] $end
$upscope $end
$scope module reg_file $end
$var wire 5 ;" A_addr [4:0] $end
$var wire 5 <" B_addr [4:0] $end
$var wire 1 4 clk $end
$var wire 1 : rst $end
$var wire 1 G D_write $end
$var wire 32 =" D_data [31:0] $end
$var wire 5 >" D_addr [4:0] $end
$var wire 32 ?" B_data [31:0] $end
$var wire 32 @" A_data [31:0] $end
$var integer 32 A" i [31:0] $end
$upscope $end
$upscope $end
$scope module ex_stage $end
$var wire 32 B" BusA [31:0] $end
$var wire 32 C" BusB [31:0] $end
$var wire 5 D" FS [4:0] $end
$var wire 1 h MW $end
$var wire 1 P N_xor_V $end
$var wire 32 E" PC_2 [31:0] $end
$var wire 5 F" SH [4:0] $end
$var wire 1 4 clk $end
$var wire 32 G" extended_imm [31:0] $end
$var wire 1 : rst $end
$var wire 32 H" mem_data [31:0] $end
$var wire 1 N Z $end
$var wire 1 O V $end
$var wire 1 Q N $end
$var wire 1 R C $end
$var wire 32 I" BrA [31:0] $end
$var wire 32 J" ALU_result [31:0] $end
$scope module data_mem $end
$var wire 1 h MW $end
$var wire 32 K" addr [31:0] $end
$var wire 1 4 clk $end
$var wire 32 L" data_in [31:0] $end
$var reg 32 M" data_out [31:0] $end
$var integer 32 N" i [31:0] $end
$upscope $end
$scope module func_unit $end
$var wire 32 O" A [31:0] $end
$var wire 32 P" B [31:0] $end
$var wire 1 R C $end
$var wire 32 Q" F [31:0] $end
$var wire 5 R" FS [4:0] $end
$var wire 5 S" SH [4:0] $end
$var wire 1 N Z $end
$var wire 1 O V $end
$var wire 1 Q N $end
$var parameter 5 T" FS_ADD $end
$var parameter 5 U" FS_AND $end
$var parameter 5 V" FS_JML $end
$var parameter 5 W" FS_LSL $end
$var parameter 5 X" FS_LSR $end
$var parameter 5 Y" FS_MOV $end
$var parameter 5 Z" FS_NOP $end
$var parameter 5 [" FS_NOT $end
$var parameter 5 \" FS_OR $end
$var parameter 5 ]" FS_SUB $end
$var parameter 5 ^" FS_XOR $end
$var reg 1 _" carry_out $end
$var reg 1 O overflow $end
$var reg 32 `" result [31:0] $end
$upscope $end
$upscope $end
$scope module if_stage $end
$var wire 2 a" BS [1:0] $end
$var wire 32 b" BrA [31:0] $end
$var wire 32 c" JMP [31:0] $end
$var wire 32 d" PC [31:0] $end
$var wire 1 i PS $end
$var wire 32 e" RAA [31:0] $end
$var wire 1 N Z $end
$var wire 1 4 clk $end
$var wire 1 : rst $end
$var wire 32 f" instruction [31:0] $end
$var wire 32 g" PC_next [31:0] $end
$var wire 32 h" PC_1 [31:0] $end
$scope module inst_mem $end
$var wire 32 i" addr [31:0] $end
$var wire 32 j" instruction [31:0] $end
$var integer 32 k" i [31:0] $end
$upscope $end
$scope module mux_c $end
$var wire 2 l" BS [1:0] $end
$var wire 32 m" BrA [31:0] $end
$var wire 32 n" JMP [31:0] $end
$var wire 32 o" PC_1 [31:0] $end
$var wire 1 i PS $end
$var wire 32 p" RAA [31:0] $end
$var wire 1 N Z $end
$var wire 32 q" top_path [31:0] $end
$var wire 32 r" out [31:0] $end
$var wire 1 s" branch_condition $end
$var wire 32 t" bottom_path [31:0] $end
$var wire 1 u" BS1 $end
$var wire 1 v" BS0 $end
$upscope $end
$upscope $end
$scope module wb_stage $end
$var wire 32 w" ALU_result [31:0] $end
$var wire 5 x" DR [4:0] $end
$var wire 2 y" MD [1:0] $end
$var wire 1 p N_xor_V $end
$var wire 1 q RW $end
$var wire 5 z" WB_addr [4:0] $end
$var wire 1 G WB_en $end
$var wire 32 {" mem_data [31:0] $end
$var wire 32 |" WB_data [31:0] $end
$scope module mux_d $end
$var wire 32 }" ALU_result [31:0] $end
$var wire 2 ~" MD [1:0] $end
$var wire 1 p N_xor_V $end
$var wire 32 !# mem_data [31:0] $end
$var reg 32 "# out [31:0] $end
$upscope $end
$upscope $end
$upscope $end
$upscope $end
$enddefinitions $end
$comment Show the parameter values. $end
$dumpall
b1100 ^"
b101 ]"
b1010 \"
b1110 ["
b0 Z"
b0 Y"
b11000 X"
b10100 W"
b111 V"
b1000 U"
b10 T"
$end
#0
$dumpvars
b0 "#
b0 !#
b0 ~"
b0 }"
b0 |"
b0 {"
b0 z"
b0 y"
b0 x"
b0 w"
0v"
0u"
b0 t"
1s"
b1 r"
b1 q"
b0 p"
b1 o"
b0 n"
b0 m"
b0 l"
b10000000000 k"
b0 j"
b0 i"
b1 h"
b1 g"
b0 f"
b0 e"
b0 d"
b0 c"
b0 b"
b0 a"
b0 `"
0_"
b0 S"
b0 R"
b0 Q"
b0 P"
b0 O"
b10000000000 N"
b0 M"
b0 L"
b0 K"
b0 J"
b0 I"
b0 H"
b0 G"
b0 F"
b0 E"
b0 D"
b0 C"
b0 B"
b100000 A"
b0 @"
b0 ?"
b0 >"
b0 ="
b0 <"
b0 ;"
b0 :"
b0 9"
b0 8"
b0 7"
b0 6"
b0 5"
b0 4"
b0 3"
b0 2"
b0 1"
b0 0"
b0 /"
b0 ."
b0 -"
b0 ,"
b0 +"
b0 *"
0)"
b0 ("
b0 '"
b0 &"
0%"
0$"
b0 #"
b0 ""
b0 !"
b0 ~
b0 }
b0 |
b0 {
b0 z
b0 y
b0 x
b0 w
b0 v
b0 u
b0 t
b0 s
b0 r
0q
0p
b0 o
b0 n
b0 m
b0 l
b0 k
0j
0i
0h
b0 g
b0 f
b0 e
b0 d
b0 c
b0 b
b0 a
b0 `
b0 _
b0 ^
b0 ]
b0 \
b0 [
b0 Z
0Y
0X
0W
b0 V
b0 U
b0 T
b0 S
0R
0Q
0P
0O
1N
b0 M
b1 L
b1 K
b0 J
b0 I
b0 H
0G
b0 F
b0 E
b0 D
b0 C
b0 B
b1000 A
b0 @
b0 ?
b10010010 >
b10000000000 =
b10000000000 <
b0 ;
1:
b11111111111111111111111111111111 9
b0 8
b0 7
b10011100011000000000000000011111 6
15
04
b0 3
02
b0 1
b0 0
b0 /
b0 .
b0 -
b0 ,
b0 +
b0 *
b0 )
b0 (
b0 '
0&
b0 %
b0 $
b0 #
b0 "
b0 !
$end
#5
b100000 A"
14
#10
04
#15
b100000 A"
14
#20
b10 L
b10 g"
b10 r"
b10 q"
b1 u
b1 x
b1 5"
b10 K
b10 h"
b10 o"
b1 '
b1 t
b1 d"
b1 i"
04
0:
#21
b1 L
b1 g"
b1 r"
b1 q"
b0 u
b0 x
b0 5"
b1 K
b1 h"
b1 o"
b0 '
b0 t
b0 d"
b0 i"
b100000 A"
1:
b1111000 =
#25
b100000 A"
14
#30
04
#35
b100000 A"
14
#40
04
#41
0:
#42
b10000000000100000000000000000000 $
b10000000000100000000000000000000 J
b10000000000100000000000000000000 f"
b10000000000100000000000000000000 j"
b10000000000 =
b1001010 B
b1000100 C
b0 D
b11010 >
#45
b0 9
b1 ;
14
#50
b10 L
b10 g"
b10 r"
12
1W
b10 q"
b0 $
b0 J
b0 f"
b0 j"
b1000000 3
b1000000 z
b1000000 1"
b1 \
b1 ("
b1 u
b1 x
b1 5"
b10 K
b10 h"
b10 o"
b1 '
b1 t
b1 d"
b1 i"
b10000000000100000000000000000000 w
b10000000000100000000000000000000 "
b10000000000100000000000000000000 s
b10000000000100000000000000000000 y
04
#55
b10000000000100000000000000000000 8
b10 ;
b1 9
14
#60
02
0W
b11 L
b11 g"
b11 r"
b0 3
b0 z
b0 1"
b0 \
b0 ("
b11 q"
b1 e
1j
b0 w
b0 "
b0 s
b0 y
b1 S
b1 I"
b1 b"
b1 c"
b1 m"
b1 n"
b1 v
b1 E"
b10 u
b10 x
b10 5"
b11 K
b11 h"
b11 o"
b10 '
b10 t
b10 d"
b10 i"
04
#65
b10 9
b0 8
b11 ;
14
#70
b100 L
b100 g"
b100 r"
b100 q"
b10 S
b10 I"
b10 b"
b10 c"
b10 m"
b10 n"
b10 v
b10 E"
b11 u
b11 x
b11 5"
b100 K
b100 h"
b100 o"
b11 '
b11 t
b11 d"
b11 i"
b0 e
0j
b1 I
b1 }
b1 >"
b1 z"
b1 n
b1 x"
1G
1q
04
#75
b100 ;
b11 9
14
#80
b101 L
b101 g"
b101 r"
b101 q"
b0 I
b0 }
b0 >"
b0 z"
b0 n
b0 x"
0G
0q
b11 S
b11 I"
b11 b"
b11 c"
b11 m"
b11 n"
b11 v
b11 E"
b100 u
b100 x
b100 5"
b101 K
b101 h"
b101 o"
b100 '
b100 t
b100 d"
b100 i"
04
#85
b100 9
b101 ;
14
#90
b110 L
b110 g"
b110 r"
b110 q"
b100 S
b100 I"
b100 b"
b100 c"
b100 m"
b100 n"
b100 v
b100 E"
b101 u
b101 x
b101 5"
b110 K
b110 h"
b110 o"
b101 '
b101 t
b101 d"
b101 i"
04
#95
b110 ;
b101 9
14
#100
b111 L
b111 g"
b111 r"
b111 q"
b10000000001000000000000000000000 $
b10000000001000000000000000000000 J
b10000000001000000000000000000000 f"
b10000000001000000000000000000000 j"
b101 S
b101 I"
b101 b"
b101 c"
b101 m"
b101 n"
b101 v
b101 E"
b110 u
b110 x
b110 5"
b111 K
b111 h"
b111 o"
b110 '
b110 t
b110 d"
b110 i"
04
#105
b110 9
b111 ;
14
#110
b1000 L
b1000 g"
b1000 r"
12
1W
b1000 q"
b0 $
b0 J
b0 f"
b0 j"
b1000000 3
b1000000 z
b1000000 1"
b10 \
b10 ("
b110 S
b110 I"
b110 b"
b110 c"
b110 m"
b110 n"
b110 v
b110 E"
b111 u
b111 x
b111 5"
b1000 K
b1000 h"
b1000 o"
b111 '
b111 t
b111 d"
b111 i"
b10000000001000000000000000000000 w
b10000000001000000000000000000000 "
b10000000001000000000000000000000 s
b10000000001000000000000000000000 y
04
#115
b10000000001000000000000000000000 8
b1000 ;
b111 9
14
#120
02
0W
b1001 L
b1001 g"
b1001 r"
b0 3
b0 z
b0 1"
b0 \
b0 ("
b1001 q"
b10 e
1j
b0 w
b0 "
b0 s
b0 y
b111 S
b111 I"
b111 b"
b111 c"
b111 m"
b111 n"
b111 v
b111 E"
b1000 u
b1000 x
b1000 5"
b1001 K
b1001 h"
b1001 o"
b1000 '
b1000 t
b1000 d"
b1000 i"
04
#125
b1000 9
b0 8
b1001 ;
14
#130
b1010 L
b1010 g"
b1010 r"
b1010 q"
b1000 S
b1000 I"
b1000 b"
b1000 c"
b1000 m"
b1000 n"
b1000 v
b1000 E"
b1001 u
b1001 x
b1001 5"
b1010 K
b1010 h"
b1010 o"
b1001 '
b1001 t
b1001 d"
b1001 i"
b0 e
0j
b10 I
b10 }
b10 >"
b10 z"
b10 n
b10 x"
1G
1q
04
#135
b1010 ;
b1001 9
14
#140
b1011 L
b1011 g"
b1011 r"
b1011 q"
b0 I
b0 }
b0 >"
b0 z"
b0 n
b0 x"
0G
0q
b1001 S
b1001 I"
b1001 b"
b1001 c"
b1001 m"
b1001 n"
b1001 v
b1001 E"
b1010 u
b1010 x
b1010 5"
b1011 K
b1011 h"
b1011 o"
b1010 '
b1010 t
b1010 d"
b1010 i"
04
#145
b1010 9
b1011 ;
14
#150
b1100 L
b1100 g"
b1100 r"
b1100 q"
b1010 S
b1010 I"
b1010 b"
b1010 c"
b1010 m"
b1010 n"
b1010 v
b1010 E"
b1011 u
b1011 x
b1011 5"
b1100 K
b1100 h"
b1100 o"
b1011 '
b1011 t
b1011 d"
b1011 i"
04
#155
b1100 ;
b1011 9
14
#160
b1101 L
b1101 g"
b1101 r"
b1101 q"
b10000000001100000000000000000000 $
b10000000001100000000000000000000 J
b10000000001100000000000000000000 f"
b10000000001100000000000000000000 j"
b1011 S
b1011 I"
b1011 b"
b1011 c"
b1011 m"
b1011 n"
b1011 v
b1011 E"
b1100 u
b1100 x
b1100 5"
b1101 K
b1101 h"
b1101 o"
b1100 '
b1100 t
b1100 d"
b1100 i"
04
#165
b1100 9
b1101 ;
14
#170
b1110 L
b1110 g"
b1110 r"
12
1W
b1110 q"
b0 $
b0 J
b0 f"
b0 j"
b1000000 3
b1000000 z
b1000000 1"
b11 \
b11 ("
b1100 S
b1100 I"
b1100 b"
b1100 c"
b1100 m"
b1100 n"
b1100 v
b1100 E"
b1101 u
b1101 x
b1101 5"
b1110 K
b1110 h"
b1110 o"
b1101 '
b1101 t
b1101 d"
b1101 i"
b10000000001100000000000000000000 w
b10000000001100000000000000000000 "
b10000000001100000000000000000000 s
b10000000001100000000000000000000 y
04
#175
b10000000001100000000000000000000 8
b1110 ;
b1101 9
14
#180
02
0W
b1111 L
b1111 g"
b1111 r"
b0 3
b0 z
b0 1"
b0 \
b0 ("
b1111 q"
b11 e
1j
b0 w
b0 "
b0 s
b0 y
b1101 S
b1101 I"
b1101 b"
b1101 c"
b1101 m"
b1101 n"
b1101 v
b1101 E"
b1110 u
b1110 x
b1110 5"
b1111 K
b1111 h"
b1111 o"
b1110 '
b1110 t
b1110 d"
b1110 i"
04
#185
b1110 9
b0 8
b1111 ;
14
#190
b10000 L
b10000 g"
b10000 r"
b10000 q"
b1110 S
b1110 I"
b1110 b"
b1110 c"
b1110 m"
b1110 n"
b1110 v
b1110 E"
b1111 u
b1111 x
b1111 5"
b10000 K
b10000 h"
b10000 o"
b1111 '
b1111 t
b1111 d"
b1111 i"
b0 e
0j
b11 I
b11 }
b11 >"
b11 z"
b11 n
b11 x"
1G
1q
04
#195
b10000 ;
b1111 9
14
#200
b10001 L
b10001 g"
b10001 r"
b10001 q"
b0 I
b0 }
b0 >"
b0 z"
b0 n
b0 x"
0G
0q
b1111 S
b1111 I"
b1111 b"
b1111 c"
b1111 m"
b1111 n"
b1111 v
b1111 E"
b10000 u
b10000 x
b10000 5"
b10001 K
b10001 h"
b10001 o"
b10000 '
b10000 t
b10000 d"
b10000 i"
04
#205
b10000 9
b10001 ;
14
#210
b10010 L
b10010 g"
b10010 r"
b10010 q"
b10000 S
b10000 I"
b10000 b"
b10000 c"
b10000 m"
b10000 n"
b10000 v
b10000 E"
b10001 u
b10001 x
b10001 5"
b10010 K
b10010 h"
b10010 o"
b10001 '
b10001 t
b10001 d"
b10001 i"
04
#215
b10010 ;
b10001 9
14
#220
b10011 L
b10011 g"
b10011 r"
b10011 q"
b10000000010000000000000000000000 $
b10000000010000000000000000000000 J
b10000000010000000000000000000000 f"
b10000000010000000000000000000000 j"
b10001 S
b10001 I"
b10001 b"
b10001 c"
b10001 m"
b10001 n"
b10001 v
b10001 E"
b10010 u
b10010 x
b10010 5"
b10011 K
b10011 h"
b10011 o"
b10010 '
b10010 t
b10010 d"
b10010 i"
04
#225
b10010 9
b10011 ;
14
#230
b10100 L
b10100 g"
b10100 r"
12
1W
b10100 q"
b0 $
b0 J
b0 f"
b0 j"
b1000000 3
b1000000 z
b1000000 1"
b100 \
b100 ("
b10010 S
b10010 I"
b10010 b"
b10010 c"
b10010 m"
b10010 n"
b10010 v
b10010 E"
b10011 u
b10011 x
b10011 5"
b10100 K
b10100 h"
b10100 o"
b10011 '
b10011 t
b10011 d"
b10011 i"
b10000000010000000000000000000000 w
b10000000010000000000000000000000 "
b10000000010000000000000000000000 s
b10000000010000000000000000000000 y
04
#235
b10000000010000000000000000000000 8
b10100 ;
b10011 9
14
#240
02
0W
b10101 L
b10101 g"
b10101 r"
b0 3
b0 z
b0 1"
b0 \
b0 ("
b10101 q"
b100 e
1j
b0 w
b0 "
b0 s
b0 y
b10011 S
b10011 I"
b10011 b"
b10011 c"
b10011 m"
b10011 n"
b10011 v
b10011 E"
b10100 u
b10100 x
b10100 5"
b10101 K
b10101 h"
b10101 o"
b10100 '
b10100 t
b10100 d"
b10100 i"
04
#245
b10100 9
b0 8
b10101 ;
14
#250
b10110 L
b10110 g"
b10110 r"
b10110 q"
b10100 S
b10100 I"
b10100 b"
b10100 c"
b10100 m"
b10100 n"
b10100 v
b10100 E"
b10101 u
b10101 x
b10101 5"
b10110 K
b10110 h"
b10110 o"
b10101 '
b10101 t
b10101 d"
b10101 i"
b0 e
0j
b100 I
b100 }
b100 >"
b100 z"
b100 n
b100 x"
1G
1q
04
#255
b10110 ;
b10101 9
14
#260
b10111 L
b10111 g"
b10111 r"
b10111 q"
b0 I
b0 }
b0 >"
b0 z"
b0 n
b0 x"
0G
0q
b10101 S
b10101 I"
b10101 b"
b10101 c"
b10101 m"
b10101 n"
b10101 v
b10101 E"
b10110 u
b10110 x
b10110 5"
b10111 K
b10111 h"
b10111 o"
b10110 '
b10110 t
b10110 d"
b10110 i"
04
#265
b10110 9
b10111 ;
14
#270
b11000 L
b11000 g"
b11000 r"
b11000 q"
b10110 S
b10110 I"
b10110 b"
b10110 c"
b10110 m"
b10110 n"
b10110 v
b10110 E"
b10111 u
b10111 x
b10111 5"
b11000 K
b11000 h"
b11000 o"
b10111 '
b10111 t
b10111 d"
b10111 i"
04
#275
b11000 ;
b10111 9
14
#280
b11001 L
b11001 g"
b11001 r"
b11001 q"
b10111 S
b10111 I"
b10111 b"
b10111 c"
b10111 m"
b10111 n"
b10111 v
b10111 E"
b11000 u
b11000 x
b11000 5"
b11001 K
b11001 h"
b11001 o"
b11000 '
b11000 t
b11000 d"
b11000 i"
04
#285
b11000 9
b11001 ;
14
#290
b11010 L
b11010 g"
b11010 r"
b11010 q"
b10000000000000000000001001010 $
b10000000000000000000001001010 J
b10000000000000000000001001010 f"
b10000000000000000000001001010 j"
b11000 S
b11000 I"
b11000 b"
b11000 c"
b11000 m"
b11000 n"
b11000 v
b11000 E"
b11001 u
b11001 x
b11001 5"
b11010 K
b11010 h"
b11010 o"
b11001 '
b11001 t
b11001 d"
b11001 i"
04
#295
b11010 ;
b11001 9
14
#300
b1000 #
b1000 [
b1000 '"
b1000 3"
12
1W
b1001010 U
b1001010 {
b1001010 0"
b1001010 8"
b11011 L
b11011 g"
b11011 r"
b1000 3
b1000 z
b1000 1"
b1001010 &"
b1001010 /"
b1010 V
b1010 ~
b11011 q"
b0 $
b0 J
b0 f"
b0 j"
b10000000000000000000001001010 w
b10000000000000000000001001010 "
b10000000000000000000001001010 s
b10000000000000000000001001010 y
b11001 S
b11001 I"
b11001 b"
b11001 c"
b11001 m"
b11001 n"
b11001 v
b11001 E"
b11010 u
b11010 x
b11010 5"
b11011 K
b11011 h"
b11011 o"
b11010 '
b11010 t
b11010 d"
b11010 i"
04
#305
b11010 9
b10000000000000000000001001010 8
b11011 ;
14
#310
b11100 L
b11100 g"
b11100 r"
b0 #
b0 [
b0 '"
b0 3"
02
0W
b0 U
b0 {
b0 0"
b0 8"
b11100 q"
b0 3
b0 z
b0 1"
b0 &"
b0 /"
b0 V
b0 ~
b11010 v
b11010 E"
b11011 u
b11011 x
b11011 5"
b11100 K
b11100 h"
b11100 o"
b11011 '
b11011 t
b11011 d"
b11011 i"
b0 w
b0 "
b0 s
b0 y
b1010 k
b1010 F"
b1010 S"
b1000 f
b1000 D"
b1000 R"
1j
b1100100 S
b1100100 I"
b1100100 b"
b1100100 c"
b1100100 m"
b1100100 n"
b1001010 l
b1001010 G"
04
#315
b0 8
b11100 ;
b11011 9
14
#320
b11101 L
b11101 g"
b11101 r"
b11101 q"
1G
1q
b0 k
b0 F"
b0 S"
b0 f
b0 D"
b0 R"
0j
b0 l
b0 G"
b11011 S
b11011 I"
b11011 b"
b11011 c"
b11011 m"
b11011 n"
b11011 v
b11011 E"
b11100 u
b11100 x
b11100 5"
b11101 K
b11101 h"
b11101 o"
b11100 '
b11100 t
b11100 d"
b11100 i"
04
#325
b11100 9
b11101 ;
14
#330
b11110 L
b11110 g"
b11110 r"
b11110 q"
b11100 S
b11100 I"
b11100 b"
b11100 c"
b11100 m"
b11100 n"
b11100 v
b11100 E"
b11101 u
b11101 x
b11101 5"
b11110 K
b11110 h"
b11110 o"
b11101 '
b11101 t
b11101 d"
b11101 i"
0G
0q
04
#335
b11110 ;
b11101 9
14
#340
b11111 L
b11111 g"
b11111 r"
b11111 q"
b11101 S
b11101 I"
b11101 b"
b11101 c"
b11101 m"
b11101 n"
b11101 v
b11101 E"
b11110 u
b11110 x
b11110 5"
b11111 K
b11111 h"
b11111 o"
b11110 '
b11110 t
b11110 d"
b11110 i"
04
#345
b11110 9
b11111 ;
14
#350
b100000 L
b100000 g"
b100000 r"
b100000 q"
b11110 S
b11110 I"
b11110 b"
b11110 c"
b11110 m"
b11110 n"
b11110 v
b11110 E"
b11111 u
b11111 x
b11111 5"
b100000 K
b100000 h"
b100000 o"
b11111 '
b11111 t
b11111 d"
b11111 i"
04
#355
b100000 ;
b11111 9
14
#360
b100001 L
b100001 g"
b100001 r"
b100001 q"
b11111 S
b11111 I"
b11111 b"
b11111 c"
b11111 m"
b11111 n"
b11111 v
b11111 E"
b100000 u
b100000 x
b100000 5"
b100001 K
b100001 h"
b100001 o"
b100000 '
b100000 t
b100000 d"
b100000 i"
04
#365
b100000 9
b100001 ;
14
#370
b100010 L
b100010 g"
b100010 r"
b100010 q"
b100000 S
b100000 I"
b100000 b"
b100000 c"
b100000 m"
b100000 n"
b100000 v
b100000 E"
b100001 u
b100001 x
b100001 5"
b100010 K
b100010 h"
b100010 o"
b100001 '
b100001 t
b100001 d"
b100001 i"
04
#375
b100010 ;
b100001 9
14
#380
b100011 L
b100011 g"
b100011 r"
b100011 q"
b100001 S
b100001 I"
b100001 b"
b100001 c"
b100001 m"
b100001 n"
b100001 v
b100001 E"
b100010 u
b100010 x
b100010 5"
b100011 K
b100011 h"
b100011 o"
b100010 '
b100010 t
b100010 d"
b100010 i"
04
#385
b100010 9
b100011 ;
14
#390
b100100 L
b100100 g"
b100100 r"
b100100 q"
b100010 S
b100010 I"
b100010 b"
b100010 c"
b100010 m"
b100010 n"
b100010 v
b100010 E"
b100011 u
b100011 x
b100011 5"
b100100 K
b100100 h"
b100100 o"
b100011 '
b100011 t
b100011 d"
b100011 i"
04
#395
b100100 ;
b100011 9
14
#400
b100101 L
b100101 g"
b100101 r"
b100101 q"
b100011 S
b100011 I"
b100011 b"
b100011 c"
b100011 m"
b100011 n"
b100011 v
b100011 E"
b100100 u
b100100 x
b100100 5"
b100101 K
b100101 h"
b100101 o"
b100100 '
b100100 t
b100100 d"
b100100 i"
04
#405
b100100 9
b100101 ;
14
#410
b100110 L
b100110 g"
b100110 r"
b100110 q"
b100100 S
b100100 I"
b100100 b"
b100100 c"
b100100 m"
b100100 n"
b100100 v
b100100 E"
b100101 u
b100101 x
b100101 5"
b100110 K
b100110 h"
b100110 o"
b100101 '
b100101 t
b100101 d"
b100101 i"
04
#415
b100110 ;
b100101 9
14
#420
b100111 L
b100111 g"
b100111 r"
b100111 q"
b100101 S
b100101 I"
b100101 b"
b100101 c"
b100101 m"
b100101 n"
b100101 v
b100101 E"
b100110 u
b100110 x
b100110 5"
b100111 K
b100111 h"
b100111 o"
b100110 '
b100110 t
b100110 d"
b100110 i"
04
#425
b100110 9
b100111 ;
14
#430
b101000 L
b101000 g"
b101000 r"
b101000 q"
b100110 S
b100110 I"
b100110 b"
b100110 c"
b100110 m"
b100110 n"
b100110 v
b100110 E"
b100111 u
b100111 x
b100111 5"
b101000 K
b101000 h"
b101000 o"
b100111 '
b100111 t
b100111 d"
b100111 i"
04
#435
b101000 ;
b100111 9
14
#440
b101001 L
b101001 g"
b101001 r"
b101001 q"
b100111 S
b100111 I"
b100111 b"
b100111 c"
b100111 m"
b100111 n"
b100111 v
b100111 E"
b101000 u
b101000 x
b101000 5"
b101001 K
b101001 h"
b101001 o"
b101000 '
b101000 t
b101000 d"
b101000 i"
04
#445
b101000 9
b101001 ;
14
#450
b101010 L
b101010 g"
b101010 r"
b101010 q"
b101000 S
b101000 I"
b101000 b"
b101000 c"
b101000 m"
b101000 n"
b101000 v
b101000 E"
b101001 u
b101001 x
b101001 5"
b101010 K
b101010 h"
b101010 o"
b101001 '
b101001 t
b101001 d"
b101001 i"
04
#455
b101010 ;
b101001 9
14
