assignments/hw3-vending-machine/vending-machine_tb.vcd
$date
	Thu Feb 13 13:18:57 2025
$end
$version
	Icarus Verilog
$end
$timescale
	1ps
$end
$scope module vendingMachine_tb $end
$var wire 6 ! out_of_stock_light [5:0] $end
$var wire 1 " exact_change_light $end
$var wire 1 # dispense_product $end
$var wire 5 $ coin_return [4:0] $end
$var reg 1 % avail_dime $end
$var reg 1 & avail_dollar $end
$var reg 1 ' avail_half $end
$var reg 1 ( avail_nickel $end
$var reg 1 ) avail_quarter $end
$var reg 1 * clk $end
$var reg 1 + coin_dime $end
$var reg 1 , coin_dollar $end
$var reg 1 - coin_half $end
$var reg 1 . coin_nickel $end
$var reg 1 / coin_quarter $end
$var reg 3 0 product_select [2:0] $end
$var reg 1 1 product_select_valid $end
$var reg 1 2 reset $end
$var reg 1 3 return_button $end
$var reg 6 4 stock_sensor [5:0] $end
$scope module uut $end
$var wire 1 % avail_dime $end
$var wire 1 & avail_dollar $end
$var wire 1 ' avail_half $end
$var wire 1 ( avail_nickel $end
$var wire 1 ) avail_quarter $end
$var wire 1 * clk $end
$var wire 1 + coin_dime $end
$var wire 1 , coin_dollar $end
$var wire 1 - coin_half $end
$var wire 1 . coin_nickel $end
$var wire 1 / coin_quarter $end
$var wire 6 5 out_of_stock_light [5:0] $end
$var wire 3 6 product_select [2:0] $end
$var wire 1 1 product_select_valid $end
$var wire 1 2 reset $end
$var wire 1 3 return_button $end
$var wire 6 7 stock_sensor [5:0] $end
$var wire 1 8 return_button_edge $end
$var wire 1 9 product_select_valid_edge $end
$var wire 1 : coin_quarter_edge $end
$var wire 1 ; coin_nickel_edge $end
$var wire 1 < coin_half_edge $end
$var wire 1 = coin_dollar_edge $end
$var wire 1 > coin_dime_edge $end
$var wire 1 ? cm_done $end
$var wire 5 @ cm_coin_out [4:0] $end
$var parameter 2 A STATE_INIT_CHANGE $end
$var parameter 2 B STATE_MAKE_CHANGE $end
$var parameter 2 C STATE_WAIT $end
$var reg 9 D balance [8:0] $end
$var reg 9 E cm_change_amount [8:0] $end
$var reg 1 F cm_start $end
$var reg 5 G coin_return [4:0] $end
$var reg 1 # dispense_product $end
$var reg 1 " exact_change_light $end
$var reg 2 H state [1:0] $end
$var reg 9 I temp_balance [8:0] $end
$scope module cm $end
$var wire 1 % avail_dime $end
$var wire 1 & avail_dollar $end
$var wire 1 ' avail_half $end
$var wire 1 ( avail_nickel $end
$var wire 1 ) avail_quarter $end
$var wire 9 J change_in [8:0] $end
$var wire 1 * clk $end
$var wire 1 2 reset $end
$var wire 1 F start $end
$var parameter 2 K CM_DONE $end
$var parameter 2 L CM_IDLE $end
$var parameter 2 M CM_MAKE $end
$var reg 5 N coin_out [4:0] $end
$var reg 1 ? done $end
$var reg 9 O rem_change [8:0] $end
$var reg 2 P state [1:0] $end
$upscope $end
$scope module sync_coin_dime $end
$var wire 1 * clock $end
$var wire 1 + signal $end
$var reg 1 Q edgeminus $end
$var reg 1 > edgeplus $end
$var reg 1 R oldsignal $end
$upscope $end
$scope module sync_coin_dollar $end
$var wire 1 * clock $end
$var wire 1 , signal $end
$var reg 1 S edgeminus $end
$var reg 1 = edgeplus $end
$var reg 1 T oldsignal $end
$upscope $end
$scope module sync_coin_half $end
$var wire 1 * clock $end
$var wire 1 - signal $end
$var reg 1 U edgeminus $end
$var reg 1 < edgeplus $end
$var reg 1 V oldsignal $end
$upscope $end
$scope module sync_coin_nickel $end
$var wire 1 * clock $end
$var wire 1 . signal $end
$var reg 1 W edgeminus $end
$var reg 1 ; edgeplus $end
$var reg 1 X oldsignal $end
$upscope $end
$scope module sync_coin_quarter $end
$var wire 1 * clock $end
$var wire 1 / signal $end
$var reg 1 Y edgeminus $end
$var reg 1 : edgeplus $end
$var reg 1 Z oldsignal $end
$upscope $end
$scope module sync_product_select_valid $end
$var wire 1 * clock $end
$var wire 1 1 signal $end
$var reg 1 [ edgeminus $end
$var reg 1 9 edgeplus $end
$var reg 1 \ oldsignal $end
$upscope $end
$scope module sync_return_button $end
$var wire 1 * clock $end
$var wire 1 3 signal $end
$var reg 1 ] edgeminus $end
$var reg 1 8 edgeplus $end
$var reg 1 ^ oldsignal $end
$upscope $end
$upscope $end
$upscope $end
$enddefinitions $end
$comment Show the parameter values. $end
$dumpall
b1 M
b0 L
b10 K
b0 C
b10 B
b1 A
$end
#0
$dumpvars
0^
0]
0\
0[
0Z
0Y
0X
0W
0V
0U
0T
0S
0R
0Q
b0 P
b0 O
b0 N
b0 J
b0 I
b0 H
b0 G
0F
b0 E
b0 D
b0 @
0?
0>
0=
0<
0;
0:
09
08
b111111 7
b0 6
b0 5
b111111 4
03
12
01
b0 0
0/
0.
0-
0,
0+
0*
1)
1(
1'
1&
1%
b0 $
0#
0"
b0 !
$end
#5000
1*
#10000
0*
02
#15000
1*
#20000
1=
0*
1,
#25000
0=
b1100100 D
1T
1*
#30000
1S
0*
0,
#35000
0S
0T
1*
#40000
1=
0*
1,
#45000
0=
b11001000 D
1T
1*
#50000
1S
0*
0,
#55000
0S
0T
1*
#60000
19
0*
11
b10 0
b10 6
#65000
09
b1 H
b11001 E
b11001 J
1#
1\
1*
#70000
1[
0*
01
#75000
0[
b10 H
1F
0\
1*
#80000
0*
#85000
0F
b1 P
b11001 O
1*
#90000
0*
#95000
b0 O
b100 @
b100 N
1*
#100000
0*
#105000
b100 $
b100 G
b10 P
b0 @
b0 N
1*
#110000
0*
#115000
b0 P
1?
b0 $
b0 G
1*
#120000
0*
#125000
b0 H
b0 D
0?
1*
#130000
0*
#135000
0#
1*
#140000
0*
#145000
1*
#150000
0*
#155000
1*
#160000
0*
#165000
1*
#170000
0*
#175000
1*
#180000
1:
0*
1/
#185000
0:
b11001 D
1Z
1*
#190000
1Y
0*
0/
#195000
0Y
0Z
1*
#200000
1:
0*
1/
#205000
0:
b110010 D
1Z
1*
#210000
1Y
0*
0/
#215000
0Y
0Z
1*
#220000
1=
0*
1,
#225000
0=
b10010110 D
1T
1*
#230000
1S
0*
0,
#235000
0S
0T
1*
#240000
18
0*
13
#245000
08
b1 H
b10010110 E
b10010110 J
1^
1*
#250000
1]
0*
03
#255000
0]
b10 H
1F
0^
1*
#260000
0*
#265000
0F
b1 P
b10010110 O
1*
#270000
0*
#275000
b110010 O
b10000 @
b10000 N
1*
#280000
0*
#285000
b10000 $
b10000 G
b0 O
b1000 @
b1000 N
1*
#290000
0*
#295000
b10 P
b0 @
b0 N
b1000 $
b1000 G
1*
#300000
0*
#305000
b0 $
b0 G
b0 P
1?
1*
#310000
0*
#315000
0?
b0 H
b0 D
1*
#320000
0*
#325000
1*
#330000
0*
#335000
1*
#340000
0*
#345000
1*
#350000
b10000 !
b10000 5
0*
b101111 4
b101111 7
#355000
1*
#360000
1=
0*
1,
#365000
0=
b1100100 D
1T
1*
#370000
1S
0*
0,
#375000
0S
0T
1*
#380000
1<
0*
1-
#385000
0<
b10010110 D
1V
1*
#390000
1U
0*
0-
#395000
0U
0V
1*
#400000
1:
0*
1/
#405000
0:
b10101111 D
1Z
1*
#410000
1Y
0*
0/
#415000
0Y
0Z
1*
#420000
1>
0*
1+
#425000
0>
b10111001 D
1R
1*
#430000
1Q
0*
0+
#435000
0Q
0R
1*
#440000
1;
0*
1.
#445000
0;
b10111110 D
1X
1*
#450000
1W
0*
0.
#455000
0W
0X
1*
#460000
19
0*
11
b100 0
b100 6
#465000
09
b1 H
b10111110 E
b10111110 J
1\
1*
#470000
1[
0*
01
#475000
0[
b10 H
1F
0\
1*
#480000
0*
#485000
0F
b1 P
b10111110 O
1*
#490000
0*
#495000
b1011010 O
b10000 @
b10000 N
1*
#500000
0*
#505000
b10000 $
b10000 G
b101000 O
b1000 @
b1000 N
1*
#510000
0*
#515000
b1111 O
b100 @
b100 N
b1000 $
b1000 G
1*
#520000
0*
#525000
b100 $
b100 G
b101 O
b10 @
b10 N
1*
#530000
0*
#535000
b0 O
b1 @
b1 N
b10 $
b10 G
1*
#540000
0*
#545000
b1 $
b1 G
b10 P
b0 @
b0 N
1*
#550000
0*
#555000
b0 P
1?
b0 $
b0 G
1*
#560000
0*
#565000
b0 H
b0 D
0?
1*
#570000
1"
b0 !
b0 5
0*
0(
0%
0)
b111111 4
b111111 7
#575000
1*
#580000
1=
0*
1,
#585000
0=
b1100100 D
1T
1*
#590000
1S
0*
0,
#595000
0S
0T
1*
#600000
1=
0*
1,
#605000
0=
b11001000 D
1T
1*
#610000
1S
0*
0,
#615000
0S
0T
1*
#620000
19
0*
11
b1 0
b1 6
#625000
09
b1 H
b11001 E
b11001 J
1#
1\
1*
#630000
1[
0*
01
#635000
0[
b10 H
1F
0\
1*
#640000
0*
#645000
0F
b1 P
b11001 O
1*
#650000
0*
#655000
b10 P
b0 O
1*
#660000
0*
#665000
b0 P
1?
1*
#670000
0*
#675000
0?
b0 H
b0 D
1*
#680000
0*
#685000
0#
1*
#690000
0*
#695000
1*
#700000
0*
#705000
1*
#710000
0*
#715000
1*
#720000
0*
#725000
1*
#730000
0"
0*
1)
1%
1(
#735000
1*
#740000
1;
1>
0*
1.
1+
#745000
0>
0;
b1111 D
1R
1X
1*
#750000
1W
1Q
0*
0.
0+
#755000
0W
0Q
0X
0R
1*
#760000
18
0*
13
#765000
08
b1 H
b1111 E
b1111 J
1^
1*
#770000
1]
0*
03
#775000
0]
b10 H
1F
0^
1*
#780000
0*
#785000
0F
b1 P
b1111 O
1*
#790000
0*
#795000
b101 O
b10 @
b10 N
1*
#800000
0*
#805000
b10 $
b10 G
b0 O
b1 @
b1 N
1*
#810000
0*
#815000
b10 P
b0 @
b0 N
b1 $
b1 G
1*
#820000
0*
#825000
b0 $
b0 G
b0 P
1?
1*
#830000
0*
#835000
0?
b0 H
b0 D
1*
#840000
0*
#845000
1*
#850000
0*
#855000
1*
#860000
0*
#865000
1*
#870000
0*
#875000
1*
#880000
1=
0*
1,
#885000
0=
b1100100 D
1T
1*
#890000
1S
0*
0,
#895000
0S
0T
1*
#900000
1<
0*
1-
#905000
0<
b10010110 D
1V
1*
#910000
1U
0*
0-
#915000
0U
0V
1*
#920000
1:
0*
1/
#925000
0:
b10101111 D
1Z
1*
#930000
1Y
0*
0/
#935000
0Y
0Z
1*
#940000
19
0*
11
b0 0
b0 6
#945000
09
b1 H
b0 E
b0 J
1#
1\
1*
#950000
1[
0*
01
#955000
0[
b10 H
1F
0\
1*
#960000
0*
#965000
0F
b1 P
1*
#970000
0*
#975000
b10 P
1*
#980000
0*
#985000
b0 P
1?
1*
#990000
0*
#995000
0?
b0 H
b0 D
1*
#1000000
0*
#1005000
0#
1*
#1010000
0*
#1015000
1*
#1020000
0*
#1025000
1*
#1030000
0*
#1035000
1*
#1040000
0*
#1045000
1*
#1050000
0*
#1055000
1*
#1060000
1=
0*
1,
#1065000
0=
b1100100 D
1T
1*
#1070000
1S
0*
0,
#1075000
0S
0T
1*
#1080000
1=
0*
1,
#1085000
0=
b11001000 D
1T
1*
#1090000
1S
0*
0,
#1095000
0S
0T
1*
#1100000
19
0*
11
b1 0
b1 6
#1105000
09
b1 H
b11001 E
b11001 J
1#
1\
1*
#1110000
1[
0*
01
#1115000
0[
b10 H
1F
0\
1*
#1120000
1:
0*
1/
#1125000
0:
0F
b1 P
b11001 O
1Z
b11001 I
1*
#1130000
1Y
0*
0/
#1135000
0Y
b0 O
b100 @
b100 N
0Z
1*
#1140000
1:
0*
1/
#1145000
0:
b100 $
b100 G
b10 P
b0 @
b0 N
1Z
b110010 I
1*
#1150000
1Y
0*
0/
#1155000
0Y
b0 P
1?
b0 $
b0 G
0Z
1*
#1160000
1=
0*
1,
#1165000
0=
b0 H
b10010110 D
0?
1T
b10010110 I
1*
#1170000
1S
0*
0,
#1175000
0S
0#
0T
1*
#1180000
18
0*
13
#1185000
08
b1 H
b10010110 E
b10010110 J
1^
1*
#1190000
1]
0*
03
#1195000
0]
b10 H
1F
0^
1*
#1200000
0*
#1205000
0F
b1 P
b10010110 O
1*
#1210000
0*
#1215000
b110010 O
b10000 @
b10000 N
1*
#1220000
0*
#1225000
b10000 $
b10000 G
b0 O
b1000 @
b1000 N
1*
#1230000
0*
#1235000
b10 P
b0 @
b0 N
b1000 $
b1000 G
1*
#1240000
0*
#1245000
b0 $
b0 G
b0 P
1?
1*
#1250000
0*
#1255000
0?
b0 H
1*
#1260000
0*
#1265000
1*
#1270000
0*
#1275000
1*
#1280000
0*
#1285000
1*
#1290000
0*
#1295000
1*
#1300000
1=
0*
1,
#1305000
0=
b11111010 D
1T
1*
#1310000
1S
0*
0,
#1315000
0S
0T
1*
#1320000
1>
0*
1+
#1325000
0>
b100000100 D
1R
1*
#1330000
1Q
0*
0+
#1335000
0Q
0R
1*
#1340000
b0 E
b0 J
b0 I
b0 D
0*
12
#1345000
1*
#1350000
0*
02
#1355000
1*
#1360000
19
0*
11
b11 0
b11 6
#1365000
09
1\
1*
#1370000
1[
0*
01
#1375000
0[
0\
1*
